\relax 
\providecommand\hyper@newdestlabel[2]{}
\providecommand\HyperFirstAtBeginDocument{\AtBeginDocument}
\HyperFirstAtBeginDocument{\ifx\hyper@anchor\@undefined
\global\let\oldcontentsline\contentsline
\gdef\contentsline#1#2#3#4{\oldcontentsline{#1}{#2}{#3}}
\global\let\oldnewlabel\newlabel
\gdef\newlabel#1#2{\newlabelxx{#1}#2}
\gdef\newlabelxx#1#2#3#4#5#6{\oldnewlabel{#1}{{#2}{#3}}}
\AtEndDocument{\ifx\hyper@anchor\@undefined
\let\contentsline\oldcontentsline
\let\newlabel\oldnewlabel
\fi}
\fi}
\global\let\hyper@last\relax 
\gdef\HyperFirstAtBeginDocument#1{#1}
\providecommand*\HyPL@Entry[1]{}
\HyPL@Entry{0<</P(1)>>}
\@writefile{nav}{\headcommand {\slideentry {0}{0}{1}{1/1}{}{0}}}
\@writefile{nav}{\headcommand {\beamer@framepages {1}{1}}}
\HyPL@Entry{1<</P(2)>>}
\@writefile{nav}{\headcommand {\slideentry {0}{0}{2}{2/2}{}{0}}}
\@writefile{nav}{\headcommand {\beamer@framepages {2}{2}}}
\HyPL@Entry{2<</P(3)>>}
\@writefile{nav}{\headcommand {\slideentry {0}{0}{3}{3/4}{}{0}}}
\@writefile{nav}{\headcommand {\beamer@framepages {3}{4}}}
\HyPL@Entry{4<</P(4)>>}
\@writefile{nav}{\headcommand {\slideentry {0}{0}{4}{5/5}{}{0}}}
\@writefile{nav}{\headcommand {\beamer@framepages {5}{5}}}
\HyPL@Entry{5<</P(5)>>}
\@writefile{nav}{\headcommand {\slideentry {0}{0}{5}{6/6}{}{0}}}
\@writefile{nav}{\headcommand {\beamer@framepages {6}{6}}}
\HyPL@Entry{6<</P(6)>>}
\@writefile{nav}{\headcommand {\slideentry {0}{0}{6}{7/7}{}{0}}}
\@writefile{nav}{\headcommand {\beamer@framepages {7}{7}}}
\HyPL@Entry{7<</P(7)>>}
\@writefile{toc}{\beamer@sectionintoc {1}{A little on the typology of affricates}{8}{0}{1}}
\@writefile{nav}{\headcommand {\sectionentry {1}{A little on the typology of affricates}{8}{A little on the typology of affricates}{0}}}
\@writefile{nav}{\headcommand {\beamer@sectionpages {1}{7}}}
\@writefile{nav}{\headcommand {\beamer@subsectionpages {1}{7}}}
\@writefile{nav}{\headcommand {\slideentry {1}{0}{1}{8/8}{}{0}}}
\@writefile{nav}{\headcommand {\beamer@framepages {8}{8}}}
\HyPL@Entry{8<</P(8)>>}
\newlabel{sec:a_little_on_the_typology_of_affricates}{{1}{9}{A little on the typology of affricates}{Doc-Start}{}}
\@writefile{snm}{\beamer@slide {sec:a_little_on_the_typology_of_affricates}{9}}
\@writefile{nav}{\headcommand {\slideentry {1}{0}{2}{9/9}{}{0}}}
\@writefile{nav}{\headcommand {\beamer@framepages {9}{9}}}
\HyPL@Entry{9<</P(9)>>}
\@writefile{nav}{\headcommand {\slideentry {1}{0}{3}{10/10}{}{0}}}
\@writefile{nav}{\headcommand {\beamer@framepages {10}{10}}}
\HyPL@Entry{10<</P(10)>>}
\newlabel{place-count}{{10}{11}{A little on the typology of affricates}{Doc-Start}{}}
\@writefile{snm}{\beamer@slide {place-count}{11}}
\@writefile{nav}{\headcommand {\slideentry {1}{0}{4}{11/12}{}{0}}}
\@writefile{nav}{\headcommand {\beamer@framepages {11}{12}}}
\HyPL@Entry{12<</P(11)>>}
\newlabel{place-count-eurasia}{{11}{13}{A little on the typology of affricates}{Doc-Start}{}}
\@writefile{snm}{\beamer@slide {place-count-eurasia}{13}}
\@writefile{nav}{\headcommand {\slideentry {1}{0}{5}{13/14}{}{0}}}
\@writefile{nav}{\headcommand {\beamer@framepages {13}{14}}}
\HyPL@Entry{14<</P(12)>>}
\@writefile{toc}{\beamer@sectionintoc {2}{Data}{15}{0}{2}}
\@writefile{nav}{\headcommand {\sectionentry {2}{Data}{15}{Data}{0}}}
\@writefile{nav}{\headcommand {\beamer@sectionpages {8}{14}}}
\@writefile{nav}{\headcommand {\beamer@subsectionpages {8}{14}}}
\@writefile{nav}{\headcommand {\slideentry {2}{0}{1}{15/15}{}{0}}}
\@writefile{nav}{\headcommand {\beamer@framepages {15}{15}}}
\HyPL@Entry{15<</P(13)>>}
\newlabel{sec:data}{{2}{16}{Data}{Doc-Start}{}}
\@writefile{snm}{\beamer@slide {sec:data}{16}}
\@writefile{nav}{\headcommand {\slideentry {2}{0}{2}{16/16}{}{0}}}
\@writefile{nav}{\headcommand {\beamer@framepages {16}{16}}}
\HyPL@Entry{16<</P(14)>>}
\@writefile{toc}{\beamer@sectionintoc {3}{Affricate-rich languages in Eurasia}{17}{0}{3}}
\@writefile{nav}{\headcommand {\sectionentry {3}{Affricate-rich languages in Eurasia}{17}{Affricate-rich languages in Eurasia}{0}}}
\@writefile{nav}{\headcommand {\beamer@sectionpages {15}{16}}}
\@writefile{nav}{\headcommand {\beamer@subsectionpages {15}{16}}}
\@writefile{nav}{\headcommand {\slideentry {3}{0}{1}{17/17}{}{0}}}
\@writefile{nav}{\headcommand {\beamer@framepages {17}{17}}}
\HyPL@Entry{17<</P(15)>>}
\newlabel{sec:affricate_rich_and_affricate_dense_languages_in_eurasia}{{3}{18}{Affricate-rich languages in Eurasia}{Doc-Start}{}}
\@writefile{snm}{\beamer@slide {sec:affricate_rich_and_affricate_dense_languages_in_eurasia}{18}}
\newlabel{fig:affricate-rich}{{1}{18}{Affricate-rich languages in Eurasia}{Doc-Start}{}}
\@writefile{snm}{\beamer@slide {fig:affricate-rich}{18}}
\@writefile{nav}{\headcommand {\slideentry {3}{0}{2}{18/18}{}{0}}}
\@writefile{nav}{\headcommand {\beamer@framepages {18}{18}}}
\HyPL@Entry{18<</P(16)>>}
\@writefile{nav}{\headcommand {\slideentry {3}{0}{3}{19/22}{}{0}}}
\@writefile{nav}{\headcommand {\beamer@framepages {19}{22}}}
\HyPL@Entry{22<</P(17)>>}
\@writefile{toc}{\beamer@sectionintoc {4}{A closer look at the areas}{23}{0}{4}}
\@writefile{nav}{\headcommand {\sectionentry {4}{A closer look at the areas}{23}{A closer look at the areas}{0}}}
\@writefile{nav}{\headcommand {\beamer@sectionpages {17}{22}}}
\@writefile{nav}{\headcommand {\beamer@subsectionpages {17}{22}}}
\@writefile{nav}{\headcommand {\slideentry {4}{0}{1}{23/23}{}{0}}}
\@writefile{nav}{\headcommand {\beamer@framepages {23}{23}}}
\HyPL@Entry{23<</P(18)>>}
\newlabel{sec:a_closer_look_at_the_areas}{{4}{24}{A closer look at the areas}{Doc-Start}{}}
\@writefile{snm}{\beamer@slide {sec:a_closer_look_at_the_areas}{24}}
\newlabel{fig:affricate-rich-europe}{{2}{24}{A closer look at the areas}{Doc-Start}{}}
\@writefile{snm}{\beamer@slide {fig:affricate-rich-europe}{24}}
\@writefile{nav}{\headcommand {\slideentry {4}{0}{2}{24/24}{}{0}}}
\@writefile{nav}{\headcommand {\beamer@framepages {24}{24}}}
\HyPL@Entry{24<</P(19)>>}
\@writefile{nav}{\headcommand {\slideentry {4}{0}{3}{25/25}{}{0}}}
\@writefile{nav}{\headcommand {\beamer@framepages {25}{25}}}
\HyPL@Entry{25<</P(20)>>}
\@writefile{nav}{\headcommand {\slideentry {4}{0}{4}{26/29}{}{0}}}
\@writefile{nav}{\headcommand {\beamer@framepages {26}{29}}}
\HyPL@Entry{29<</P(21)>>}
\newlabel{fig:affricate-rich-caucasus}{{3}{30}{A closer look at the areas}{Doc-Start}{}}
\@writefile{snm}{\beamer@slide {fig:affricate-rich-caucasus}{30}}
\@writefile{nav}{\headcommand {\slideentry {4}{0}{5}{30/30}{}{0}}}
\@writefile{nav}{\headcommand {\beamer@framepages {30}{30}}}
\HyPL@Entry{30<</P(22)>>}
\@writefile{nav}{\headcommand {\slideentry {4}{0}{6}{31/31}{}{0}}}
\@writefile{nav}{\headcommand {\beamer@framepages {31}{31}}}
\HyPL@Entry{31<</P(23)>>}
\@writefile{nav}{\headcommand {\slideentry {4}{0}{7}{32/32}{}{0}}}
\@writefile{nav}{\headcommand {\beamer@framepages {32}{32}}}
\HyPL@Entry{32<</P(24)>>}
\@writefile{nav}{\headcommand {\slideentry {4}{0}{8}{33/35}{}{0}}}
\@writefile{nav}{\headcommand {\beamer@framepages {33}{35}}}
\HyPL@Entry{35<</P(25)>>}
\@writefile{nav}{\headcommand {\slideentry {4}{0}{9}{36/38}{}{0}}}
\@writefile{nav}{\headcommand {\beamer@framepages {36}{38}}}
\HyPL@Entry{38<</P(26)>>}
\newlabel{fig:affricate-rich-hindukush}{{4}{39}{A closer look at the areas}{Doc-Start}{}}
\@writefile{snm}{\beamer@slide {fig:affricate-rich-hindukush}{39}}
\@writefile{nav}{\headcommand {\slideentry {4}{0}{10}{39/39}{}{0}}}
\@writefile{nav}{\headcommand {\beamer@framepages {39}{39}}}
\HyPL@Entry{39<</P(27)>>}
\@writefile{nav}{\headcommand {\slideentry {4}{0}{11}{40/40}{}{0}}}
\@writefile{nav}{\headcommand {\beamer@framepages {40}{40}}}
\HyPL@Entry{40<</P(28)>>}
\@writefile{nav}{\headcommand {\slideentry {4}{0}{12}{41/42}{}{0}}}
\@writefile{nav}{\headcommand {\beamer@framepages {41}{42}}}
\HyPL@Entry{42<</P(29)>>}
\newlabel{fig:affricate-rich-himalaya}{{5}{43}{A closer look at the areas}{Doc-Start}{}}
\@writefile{snm}{\beamer@slide {fig:affricate-rich-himalaya}{43}}
\@writefile{nav}{\headcommand {\slideentry {4}{0}{13}{43/43}{}{0}}}
\@writefile{nav}{\headcommand {\beamer@framepages {43}{43}}}
\HyPL@Entry{43<</P(30)>>}
\@writefile{nav}{\headcommand {\slideentry {4}{0}{14}{44/44}{}{0}}}
\@writefile{nav}{\headcommand {\beamer@framepages {44}{44}}}
\HyPL@Entry{44<</P(31)>>}
\@writefile{nav}{\headcommand {\slideentry {4}{0}{15}{45/47}{}{0}}}
\@writefile{nav}{\headcommand {\beamer@framepages {45}{47}}}
\HyPL@Entry{47<</P(32)>>}
\@writefile{nav}{\headcommand {\slideentry {4}{0}{16}{48/48}{}{0}}}
\@writefile{nav}{\headcommand {\beamer@framepages {48}{48}}}
\HyPL@Entry{48<</P(33)>>}
\@writefile{toc}{\beamer@sectionintoc {5}{Affricate richness and retroflex affricates---areal sound-change processes}{49}{0}{5}}
\@writefile{nav}{\headcommand {\sectionentry {5}{Affricate richness and retroflex affricates---areal sound-change processes}{49}{Affricate richness and retroflex affricates---areal sound-change processes}{0}}}
\@writefile{nav}{\headcommand {\beamer@sectionpages {23}{48}}}
\@writefile{nav}{\headcommand {\beamer@subsectionpages {23}{48}}}
\@writefile{nav}{\headcommand {\slideentry {5}{0}{1}{49/49}{}{0}}}
\@writefile{nav}{\headcommand {\beamer@framepages {49}{49}}}
\HyPL@Entry{49<</P(34)>>}
\newlabel{sec:affricate_richness_and_retroflex_affricates_areal_sound_change_processes}{{5}{50}{Affricate richness and retroflex affricates---areal sound-change processes}{Doc-Start}{}}
\@writefile{snm}{\beamer@slide {sec:affricate_richness_and_retroflex_affricates_areal_sound_change_processes}{50}}
\@writefile{nav}{\headcommand {\slideentry {5}{0}{2}{50/50}{}{0}}}
\@writefile{nav}{\headcommand {\beamer@framepages {50}{50}}}
\HyPL@Entry{50<</P(35)>>}
\@writefile{nav}{\headcommand {\slideentry {5}{0}{3}{51/51}{}{0}}}
\@writefile{nav}{\headcommand {\beamer@framepages {51}{51}}}
\HyPL@Entry{51<</P(36)>>}
\@writefile{nav}{\headcommand {\slideentry {5}{0}{4}{52/52}{}{0}}}
\@writefile{nav}{\headcommand {\beamer@framepages {52}{52}}}
\HyPL@Entry{52<</P(37)>>}
\@writefile{nav}{\headcommand {\slideentry {5}{0}{5}{53/53}{}{0}}}
\@writefile{nav}{\headcommand {\beamer@framepages {53}{53}}}
\HyPL@Entry{53<</P(38)>>}
\@writefile{nav}{\headcommand {\slideentry {5}{0}{6}{54/54}{}{0}}}
\@writefile{nav}{\headcommand {\beamer@framepages {54}{54}}}
\HyPL@Entry{54<</P(39)>>}
\newlabel{fig:affricate-rich-sound-changes}{{6}{55}{Affricate richness and retroflex affricates---areal sound-change processes}{Doc-Start}{}}
\@writefile{snm}{\beamer@slide {fig:affricate-rich-sound-changes}{55}}
\@writefile{nav}{\headcommand {\slideentry {5}{0}{7}{55/55}{}{0}}}
\@writefile{nav}{\headcommand {\beamer@framepages {55}{55}}}
\HyPL@Entry{55<</P(40)>>}
\@writefile{nav}{\headcommand {\slideentry {5}{0}{8}{56/57}{}{0}}}
\@writefile{nav}{\headcommand {\beamer@framepages {56}{57}}}
\HyPL@Entry{57<</P(41)>>}
\@writefile{nav}{\headcommand {\slideentry {5}{0}{9}{58/59}{}{0}}}
\@writefile{nav}{\headcommand {\beamer@framepages {58}{59}}}
\HyPL@Entry{59<</P(42)>>}
\@writefile{toc}{\beamer@sectionintoc {6}{Areally-dependent affricate loss}{60}{0}{6}}
\@writefile{nav}{\headcommand {\sectionentry {6}{Areally-dependent affricate loss}{60}{Areally-dependent affricate loss}{0}}}
\@writefile{nav}{\headcommand {\beamer@sectionpages {49}{59}}}
\@writefile{nav}{\headcommand {\beamer@subsectionpages {49}{59}}}
\@writefile{nav}{\headcommand {\slideentry {6}{0}{1}{60/60}{}{0}}}
\@writefile{nav}{\headcommand {\beamer@framepages {60}{60}}}
\HyPL@Entry{60<</P(43)>>}
\newlabel{sec:areally_dependent_affricate_loss}{{6}{61}{Areally-dependent affricate loss}{Doc-Start}{}}
\@writefile{snm}{\beamer@slide {sec:areally_dependent_affricate_loss}{61}}
\@writefile{nav}{\headcommand {\slideentry {6}{0}{2}{61/61}{}{0}}}
\@writefile{nav}{\headcommand {\beamer@framepages {61}{61}}}
\HyPL@Entry{61<</P(44)>>}
\@writefile{nav}{\headcommand {\slideentry {6}{0}{3}{62/62}{}{0}}}
\@writefile{nav}{\headcommand {\beamer@framepages {62}{62}}}
\HyPL@Entry{62<</P(45)>>}
\@writefile{nav}{\headcommand {\slideentry {6}{0}{4}{63/63}{}{0}}}
\@writefile{nav}{\headcommand {\beamer@framepages {63}{63}}}
\HyPL@Entry{63<</P(46)>>}
\@writefile{nav}{\headcommand {\slideentry {6}{0}{5}{64/64}{}{0}}}
\@writefile{nav}{\headcommand {\beamer@framepages {64}{64}}}
\HyPL@Entry{64<</P(47)>>}
\@writefile{nav}{\headcommand {\slideentry {6}{0}{6}{65/65}{}{0}}}
\@writefile{nav}{\headcommand {\beamer@framepages {65}{65}}}
\HyPL@Entry{65<</P(48)>>}
\newlabel{fig:chinese-dialects}{{7}{66}{Areally-dependent affricate loss}{Doc-Start}{}}
\@writefile{snm}{\beamer@slide {fig:chinese-dialects}{66}}
\@writefile{nav}{\headcommand {\slideentry {6}{0}{7}{66/66}{}{0}}}
\@writefile{nav}{\headcommand {\beamer@framepages {66}{66}}}
\HyPL@Entry{66<</P(49)>>}
\@writefile{nav}{\headcommand {\slideentry {6}{0}{8}{67/67}{}{0}}}
\@writefile{nav}{\headcommand {\beamer@framepages {67}{67}}}
\HyPL@Entry{67<</P(50)>>}
\@writefile{toc}{\beamer@sectionintoc {7}{Conclusions}{68}{0}{7}}
\@writefile{nav}{\headcommand {\sectionentry {7}{Conclusions}{68}{Conclusions}{0}}}
\@writefile{nav}{\headcommand {\beamer@sectionpages {60}{67}}}
\@writefile{nav}{\headcommand {\beamer@subsectionpages {60}{67}}}
\@writefile{nav}{\headcommand {\slideentry {7}{0}{1}{68/68}{}{0}}}
\@writefile{nav}{\headcommand {\beamer@framepages {68}{68}}}
\HyPL@Entry{68<</P(51)>>}
\newlabel{sec:conclusions}{{7}{69}{Conclusions}{Doc-Start}{}}
\@writefile{snm}{\beamer@slide {sec:conclusions}{69}}
\@writefile{nav}{\headcommand {\slideentry {7}{0}{2}{69/69}{}{0}}}
\@writefile{nav}{\headcommand {\beamer@framepages {69}{69}}}
\HyPL@Entry{69<</P(52)>>}
\@writefile{nav}{\headcommand {\slideentry {7}{0}{3}{70/71}{}{0}}}
\@writefile{nav}{\headcommand {\beamer@framepages {70}{71}}}
\HyPL@Entry{71<</P(53)>>}
\@writefile{nav}{\headcommand {\slideentry {7}{0}{4}{72/72}{}{0}}}
\@writefile{nav}{\headcommand {\beamer@framepages {72}{72}}}
\HyPL@Entry{72<</P(54)>>}
\@writefile{nav}{\headcommand {\slideentry {7}{0}{5}{73/73}{}{0}}}
\@writefile{nav}{\headcommand {\beamer@framepages {73}{73}}}
\HyPL@Entry{73<</P(55)>>}
\@writefile{nav}{\headcommand {\slideentry {7}{0}{6}{74/74}{}{0}}}
\@writefile{nav}{\headcommand {\beamer@framepages {74}{74}}}
\HyPL@Entry{74<</P(56)>>}
\@writefile{nav}{\headcommand {\slideentry {7}{0}{7}{75/75}{}{0}}}
\@writefile{nav}{\headcommand {\beamer@framepages {75}{75}}}
\HyPL@Entry{75<</P(57)>>}
\@writefile{nav}{\headcommand {\slideentry {7}{0}{8}{76/76}{}{0}}}
\@writefile{nav}{\headcommand {\beamer@framepages {76}{76}}}
\HyPL@Entry{76<</P(58)>>}
\newlabel{fig:s-america}{{8}{77}{Conclusions}{Doc-Start}{}}
\@writefile{snm}{\beamer@slide {fig:s-america}{77}}
\@writefile{nav}{\headcommand {\slideentry {7}{0}{9}{77/77}{}{0}}}
\@writefile{nav}{\headcommand {\beamer@framepages {77}{77}}}
\HyPL@Entry{77<</P(59)>>}
\@writefile{nav}{\headcommand {\slideentry {7}{0}{10}{78/78}{}{0}}}
\@writefile{nav}{\headcommand {\beamer@framepages {78}{78}}}
\HyPL@Entry{78<</P(60)>>}
\@writefile{nav}{\headcommand {\slideentry {7}{0}{11}{79/79}{}{0}}}
\@writefile{nav}{\headcommand {\beamer@framepages {79}{79}}}
\@writefile{nav}{\headcommand {\beamer@partpages {1}{79}}}
\@writefile{nav}{\headcommand {\beamer@subsectionpages {68}{79}}}
\@writefile{nav}{\headcommand {\beamer@sectionpages {68}{79}}}
\@writefile{nav}{\headcommand {\beamer@documentpages {79}}}
\@writefile{nav}{\headcommand {\def \inserttotalframenumber {60}}}
