PWD /Users/macbook/Documents/Yandex.Disk/My papers/Misc/iphonc-talk/docs
INPUT /usr/local/texlive/2017/texmf.cnf
INPUT /usr/local/texlive/2017/texmf-dist/web2c/texmf.cnf
INPUT /usr/local/texlive/2017/texmf-var/web2c/xetex/xelatex.fmt
INPUT tel-aviv-slides.tex
OUTPUT tel-aviv-slides.log
INPUT /usr/local/texlive/2017/texmf-dist/tex/latex/beamer/beamer.cls
INPUT /usr/local/texlive/2017/texmf-dist/tex/latex/beamer/beamer.cls
INPUT /usr/local/texlive/2017/texmf-dist/tex/latex/etoolbox/etoolbox.sty
INPUT /usr/local/texlive/2017/texmf-dist/tex/latex/etoolbox/etoolbox.sty
INPUT /usr/local/texlive/2017/texmf-dist/tex/latex/beamer/beamerbasemodes.sty
INPUT /usr/local/texlive/2017/texmf-dist/tex/latex/beamer/beamerbasemodes.sty
INPUT /usr/local/texlive/2017/texmf-dist/tex/latex/beamer/beamerbasedecode.sty
INPUT /usr/local/texlive/2017/texmf-dist/tex/latex/beamer/beamerbasedecode.sty
INPUT /usr/local/texlive/2017/texmf-dist/tex/generic/oberdiek/ifpdf.sty
INPUT /usr/local/texlive/2017/texmf-dist/tex/generic/oberdiek/ifpdf.sty
INPUT /usr/local/texlive/2017/texmf-dist/tex/latex/beamer/beamerbaseoptions.sty
INPUT /usr/local/texlive/2017/texmf-dist/tex/latex/beamer/beamerbaseoptions.sty
INPUT /usr/local/texlive/2017/texmf-dist/tex/latex/graphics/keyval.sty
INPUT /usr/local/texlive/2017/texmf-dist/tex/latex/graphics/keyval.sty
INPUT /usr/local/texlive/2017/texmf-dist/tex/latex/geometry/geometry.sty
INPUT /usr/local/texlive/2017/texmf-dist/tex/latex/geometry/geometry.sty
INPUT /usr/local/texlive/2017/texmf-dist/tex/generic/oberdiek/ifvtex.sty
INPUT /usr/local/texlive/2017/texmf-dist/tex/generic/oberdiek/ifvtex.sty
INPUT /usr/local/texlive/2017/texmf-dist/tex/generic/ifxetex/ifxetex.sty
INPUT /usr/local/texlive/2017/texmf-dist/tex/generic/ifxetex/ifxetex.sty
INPUT /usr/local/texlive/2017/texmf-dist/tex/latex/base/size11.clo
INPUT /usr/local/texlive/2017/texmf-dist/tex/latex/base/size11.clo
INPUT /usr/local/texlive/2017/texmf-dist/tex/latex/pgf/basiclayer/pgfcore.sty
INPUT /usr/local/texlive/2017/texmf-dist/tex/latex/pgf/basiclayer/pgfcore.sty
INPUT /usr/local/texlive/2017/texmf-dist/tex/latex/graphics/graphicx.sty
INPUT /usr/local/texlive/2017/texmf-dist/tex/latex/graphics/graphicx.sty
INPUT /usr/local/texlive/2017/texmf-dist/tex/latex/graphics/graphics.sty
INPUT /usr/local/texlive/2017/texmf-dist/tex/latex/graphics/graphics.sty
INPUT /usr/local/texlive/2017/texmf-dist/tex/latex/graphics/trig.sty
INPUT /usr/local/texlive/2017/texmf-dist/tex/latex/graphics/trig.sty
INPUT /usr/local/texlive/2017/texmf-dist/tex/latex/graphics-cfg/graphics.cfg
INPUT /usr/local/texlive/2017/texmf-dist/tex/latex/graphics-cfg/graphics.cfg
INPUT /usr/local/texlive/2017/texmf-dist/tex/latex/graphics-def/xetex.def
INPUT /usr/local/texlive/2017/texmf-dist/tex/latex/graphics-def/xetex.def
INPUT /usr/local/texlive/2017/texmf-dist/tex/latex/pgf/systemlayer/pgfsys.sty
INPUT /usr/local/texlive/2017/texmf-dist/tex/latex/pgf/systemlayer/pgfsys.sty
INPUT /usr/local/texlive/2017/texmf-dist/tex/latex/pgf/utilities/pgfrcs.sty
INPUT /usr/local/texlive/2017/texmf-dist/tex/latex/pgf/utilities/pgfrcs.sty
INPUT /usr/local/texlive/2017/texmf-dist/tex/generic/pgf/utilities/pgfutil-common.tex
INPUT /usr/local/texlive/2017/texmf-dist/tex/generic/pgf/utilities/pgfutil-common-lists.tex
INPUT /usr/local/texlive/2017/texmf-dist/tex/generic/pgf/utilities/pgfutil-latex.def
INPUT /usr/local/texlive/2017/texmf-dist/tex/latex/ms/everyshi.sty
INPUT /usr/local/texlive/2017/texmf-dist/tex/latex/ms/everyshi.sty
INPUT /usr/local/texlive/2017/texmf-dist/tex/generic/pgf/utilities/pgfrcs.code.tex
INPUT /usr/local/texlive/2017/texmf-dist/tex/generic/pgf/utilities/pgfrcs.code.tex
INPUT /usr/local/texlive/2017/texmf-dist/tex/generic/pgf/systemlayer/pgfsys.code.tex
INPUT /usr/local/texlive/2017/texmf-dist/tex/generic/pgf/systemlayer/pgfsys.code.tex
INPUT /usr/local/texlive/2017/texmf-dist/tex/generic/pgf/utilities/pgfkeys.code.tex
INPUT /usr/local/texlive/2017/texmf-dist/tex/generic/pgf/utilities/pgfkeysfiltered.code.tex
INPUT /usr/local/texlive/2017/texmf-dist/tex/generic/pgf/systemlayer/pgf.cfg
INPUT /usr/local/texlive/2017/texmf-dist/tex/generic/pgf/systemlayer/pgfsys-xetex.def
INPUT /usr/local/texlive/2017/texmf-dist/tex/generic/pgf/systemlayer/pgfsys-xetex.def
INPUT /usr/local/texlive/2017/texmf-dist/tex/generic/pgf/systemlayer/pgfsys-dvipdfmx.def
INPUT /usr/local/texlive/2017/texmf-dist/tex/generic/pgf/systemlayer/pgfsys-common-pdf.def
INPUT /usr/local/texlive/2017/texmf-dist/tex/generic/pgf/systemlayer/pgfsyssoftpath.code.tex
INPUT /usr/local/texlive/2017/texmf-dist/tex/generic/pgf/systemlayer/pgfsyssoftpath.code.tex
INPUT /usr/local/texlive/2017/texmf-dist/tex/generic/pgf/systemlayer/pgfsysprotocol.code.tex
INPUT /usr/local/texlive/2017/texmf-dist/tex/generic/pgf/systemlayer/pgfsysprotocol.code.tex
INPUT /usr/local/texlive/2017/texmf-dist/tex/latex/xcolor/xcolor.sty
INPUT /usr/local/texlive/2017/texmf-dist/tex/latex/xcolor/xcolor.sty
INPUT /usr/local/texlive/2017/texmf-dist/tex/latex/graphics-cfg/color.cfg
INPUT /usr/local/texlive/2017/texmf-dist/tex/latex/graphics-cfg/color.cfg
INPUT /usr/local/texlive/2017/texmf-dist/tex/generic/pgf/basiclayer/pgfcore.code.tex
INPUT /usr/local/texlive/2017/texmf-dist/tex/generic/pgf/basiclayer/pgfcore.code.tex
INPUT /usr/local/texlive/2017/texmf-dist/tex/generic/pgf/math/pgfmath.code.tex
INPUT /usr/local/texlive/2017/texmf-dist/tex/generic/pgf/math/pgfmathcalc.code.tex
INPUT /usr/local/texlive/2017/texmf-dist/tex/generic/pgf/math/pgfmathutil.code.tex
INPUT /usr/local/texlive/2017/texmf-dist/tex/generic/pgf/math/pgfmathparser.code.tex
INPUT /usr/local/texlive/2017/texmf-dist/tex/generic/pgf/math/pgfmathfunctions.code.tex
INPUT /usr/local/texlive/2017/texmf-dist/tex/generic/pgf/math/pgfmathfunctions.basic.code.tex
INPUT /usr/local/texlive/2017/texmf-dist/tex/generic/pgf/math/pgfmathfunctions.trigonometric.code.tex
INPUT /usr/local/texlive/2017/texmf-dist/tex/generic/pgf/math/pgfmathfunctions.random.code.tex
INPUT /usr/local/texlive/2017/texmf-dist/tex/generic/pgf/math/pgfmathfunctions.comparison.code.tex
INPUT /usr/local/texlive/2017/texmf-dist/tex/generic/pgf/math/pgfmathfunctions.base.code.tex
INPUT /usr/local/texlive/2017/texmf-dist/tex/generic/pgf/math/pgfmathfunctions.round.code.tex
INPUT /usr/local/texlive/2017/texmf-dist/tex/generic/pgf/math/pgfmathfunctions.misc.code.tex
INPUT /usr/local/texlive/2017/texmf-dist/tex/generic/pgf/math/pgfmathfunctions.integerarithmetics.code.tex
INPUT /usr/local/texlive/2017/texmf-dist/tex/generic/pgf/math/pgfmathfloat.code.tex
INPUT /usr/local/texlive/2017/texmf-dist/tex/generic/pgf/basiclayer/pgfcorepoints.code.tex
INPUT /usr/local/texlive/2017/texmf-dist/tex/generic/pgf/basiclayer/pgfcorepathconstruct.code.tex
INPUT /usr/local/texlive/2017/texmf-dist/tex/generic/pgf/basiclayer/pgfcorepathusage.code.tex
INPUT /usr/local/texlive/2017/texmf-dist/tex/generic/pgf/basiclayer/pgfcorescopes.code.tex
INPUT /usr/local/texlive/2017/texmf-dist/tex/generic/pgf/basiclayer/pgfcoregraphicstate.code.tex
INPUT /usr/local/texlive/2017/texmf-dist/tex/generic/pgf/basiclayer/pgfcoretransformations.code.tex
INPUT /usr/local/texlive/2017/texmf-dist/tex/generic/pgf/basiclayer/pgfcorequick.code.tex
INPUT /usr/local/texlive/2017/texmf-dist/tex/generic/pgf/basiclayer/pgfcoreobjects.code.tex
INPUT /usr/local/texlive/2017/texmf-dist/tex/generic/pgf/basiclayer/pgfcorepathprocessing.code.tex
INPUT /usr/local/texlive/2017/texmf-dist/tex/generic/pgf/basiclayer/pgfcorearrows.code.tex
INPUT /usr/local/texlive/2017/texmf-dist/tex/generic/pgf/basiclayer/pgfcoreshade.code.tex
INPUT /usr/local/texlive/2017/texmf-dist/tex/generic/pgf/basiclayer/pgfcoreimage.code.tex
INPUT /usr/local/texlive/2017/texmf-dist/tex/generic/pgf/basiclayer/pgfcoreexternal.code.tex
INPUT /usr/local/texlive/2017/texmf-dist/tex/generic/pgf/basiclayer/pgfcorelayers.code.tex
INPUT /usr/local/texlive/2017/texmf-dist/tex/generic/pgf/basiclayer/pgfcoretransparency.code.tex
INPUT /usr/local/texlive/2017/texmf-dist/tex/generic/pgf/basiclayer/pgfcorepatterns.code.tex
INPUT /usr/local/texlive/2017/texmf-dist/tex/latex/pgf/utilities/xxcolor.sty
INPUT /usr/local/texlive/2017/texmf-dist/tex/latex/pgf/utilities/xxcolor.sty
INPUT /usr/local/texlive/2017/texmf-dist/tex/generic/oberdiek/atbegshi.sty
INPUT /usr/local/texlive/2017/texmf-dist/tex/generic/oberdiek/atbegshi.sty
INPUT /usr/local/texlive/2017/texmf-dist/tex/generic/oberdiek/infwarerr.sty
INPUT /usr/local/texlive/2017/texmf-dist/tex/generic/oberdiek/infwarerr.sty
INPUT /usr/local/texlive/2017/texmf-dist/tex/generic/oberdiek/ltxcmds.sty
INPUT /usr/local/texlive/2017/texmf-dist/tex/generic/oberdiek/ltxcmds.sty
INPUT /usr/local/texlive/2017/texmf-dist/tex/latex/hyperref/hyperref.sty
INPUT /usr/local/texlive/2017/texmf-dist/tex/latex/hyperref/hyperref.sty
INPUT /usr/local/texlive/2017/texmf-dist/tex/generic/oberdiek/hobsub-hyperref.sty
INPUT /usr/local/texlive/2017/texmf-dist/tex/generic/oberdiek/hobsub-hyperref.sty
INPUT /usr/local/texlive/2017/texmf-dist/tex/generic/oberdiek/hobsub-hyperref.sty
INPUT /usr/local/texlive/2017/texmf-dist/tex/generic/oberdiek/hobsub-generic.sty
INPUT /usr/local/texlive/2017/texmf-dist/tex/generic/oberdiek/hobsub-generic.sty
INPUT /usr/local/texlive/2017/texmf-dist/tex/latex/oberdiek/auxhook.sty
INPUT /usr/local/texlive/2017/texmf-dist/tex/latex/oberdiek/auxhook.sty
INPUT /usr/local/texlive/2017/texmf-dist/tex/latex/oberdiek/kvoptions.sty
INPUT /usr/local/texlive/2017/texmf-dist/tex/latex/oberdiek/kvoptions.sty
INPUT /usr/local/texlive/2017/texmf-dist/tex/latex/hyperref/pd1enc.def
INPUT /usr/local/texlive/2017/texmf-dist/tex/latex/hyperref/pd1enc.def
INPUT /usr/local/texlive/2017/texmf-dist/tex/latex/latexconfig/hyperref.cfg
INPUT /usr/local/texlive/2017/texmf-dist/tex/latex/latexconfig/hyperref.cfg
INPUT /usr/local/texlive/2017/texmf-dist/tex/latex/url/url.sty
INPUT /usr/local/texlive/2017/texmf-dist/tex/latex/url/url.sty
INPUT /usr/local/texlive/2017/texmf-dist/fonts/map/fontname/texfonts.map
INPUT /usr/local/texlive/2017/texmf-dist/fonts/tfm/adobe/zapfding/pzdr.tfm
INPUT /usr/local/texlive/2017/texmf-dist/tex/latex/hyperref/hxetex.def
INPUT /usr/local/texlive/2017/texmf-dist/tex/latex/hyperref/hxetex.def
INPUT /usr/local/texlive/2017/texmf-dist/tex/latex/hyperref/puenc.def
INPUT /usr/local/texlive/2017/texmf-dist/tex/latex/hyperref/puenc.def
INPUT /usr/local/texlive/2017/texmf-dist/tex/generic/oberdiek/stringenc.sty
INPUT /usr/local/texlive/2017/texmf-dist/tex/generic/oberdiek/stringenc.sty
INPUT /usr/local/texlive/2017/texmf-dist/tex/latex/oberdiek/rerunfilecheck.sty
INPUT /usr/local/texlive/2017/texmf-dist/tex/latex/oberdiek/rerunfilecheck.sty
INPUT /usr/local/texlive/2017/texmf-dist/tex/generic/oberdiek/se-ascii-print.def
INPUT /usr/local/texlive/2017/texmf-dist/tex/generic/oberdiek/se-ascii-print.def
INPUT /usr/local/texlive/2017/texmf-dist/tex/generic/oberdiek/se-ascii-print.def
INPUT /usr/local/texlive/2017/texmf-dist/tex/latex/beamer/beamerbaserequires.sty
INPUT /usr/local/texlive/2017/texmf-dist/tex/latex/beamer/beamerbaserequires.sty
INPUT /usr/local/texlive/2017/texmf-dist/tex/latex/beamer/beamerbasecompatibility.sty
INPUT /usr/local/texlive/2017/texmf-dist/tex/latex/beamer/beamerbasecompatibility.sty
INPUT /usr/local/texlive/2017/texmf-dist/tex/latex/beamer/beamerbasefont.sty
INPUT /usr/local/texlive/2017/texmf-dist/tex/latex/beamer/beamerbasefont.sty
INPUT /usr/local/texlive/2017/texmf-dist/tex/latex/amsfonts/amssymb.sty
INPUT /usr/local/texlive/2017/texmf-dist/tex/latex/amsfonts/amssymb.sty
INPUT /usr/local/texlive/2017/texmf-dist/tex/latex/amsfonts/amsfonts.sty
INPUT /usr/local/texlive/2017/texmf-dist/tex/latex/amsfonts/amsfonts.sty
INPUT /usr/local/texlive/2017/texmf-dist/tex/latex/sansmathaccent/sansmathaccent.sty
INPUT /usr/local/texlive/2017/texmf-dist/tex/latex/sansmathaccent/sansmathaccent.sty
INPUT /usr/local/texlive/2017/texmf-dist/tex/latex/sansmathaccent/sansmathaccent.sty
INPUT /usr/local/texlive/2017/texmf-dist/tex/latex/filehook/filehook.sty
INPUT /usr/local/texlive/2017/texmf-dist/tex/latex/filehook/filehook.sty
INPUT /usr/local/texlive/2017/texmf-dist/tex/latex/filehook/filehook.sty
INPUT /usr/local/texlive/2017/texmf-dist/tex/latex/beamer/beamerbasetranslator.sty
INPUT /usr/local/texlive/2017/texmf-dist/tex/latex/beamer/beamerbasetranslator.sty
INPUT /usr/local/texlive/2017/texmf-dist/tex/latex/beamer/translator/translator.sty
INPUT /usr/local/texlive/2017/texmf-dist/tex/latex/beamer/translator/translator.sty
INPUT /usr/local/texlive/2017/texmf-dist/tex/latex/beamer/translator/translator-language-mappings.tex
INPUT /usr/local/texlive/2017/texmf-dist/tex/latex/beamer/translator/translator-language-mappings.tex
INPUT /usr/local/texlive/2017/texmf-dist/tex/latex/beamer/beamerbasemisc.sty
INPUT /usr/local/texlive/2017/texmf-dist/tex/latex/beamer/beamerbasemisc.sty
INPUT /usr/local/texlive/2017/texmf-dist/tex/latex/beamer/beamerbasetwoscreens.sty
INPUT /usr/local/texlive/2017/texmf-dist/tex/latex/beamer/beamerbasetwoscreens.sty
INPUT /usr/local/texlive/2017/texmf-dist/tex/latex/beamer/beamerbaseoverlay.sty
INPUT /usr/local/texlive/2017/texmf-dist/tex/latex/beamer/beamerbaseoverlay.sty
INPUT /usr/local/texlive/2017/texmf-dist/tex/latex/beamer/beamerbasetitle.sty
INPUT /usr/local/texlive/2017/texmf-dist/tex/latex/beamer/beamerbasetitle.sty
INPUT /usr/local/texlive/2017/texmf-dist/tex/latex/beamer/beamerbasesection.sty
INPUT /usr/local/texlive/2017/texmf-dist/tex/latex/beamer/beamerbasesection.sty
INPUT /usr/local/texlive/2017/texmf-dist/tex/latex/beamer/beamerbaseframe.sty
INPUT /usr/local/texlive/2017/texmf-dist/tex/latex/beamer/beamerbaseframe.sty
INPUT /usr/local/texlive/2017/texmf-dist/tex/latex/beamer/beamerbaseverbatim.sty
INPUT /usr/local/texlive/2017/texmf-dist/tex/latex/beamer/beamerbaseverbatim.sty
INPUT /usr/local/texlive/2017/texmf-dist/tex/latex/beamer/beamerbaseframesize.sty
INPUT /usr/local/texlive/2017/texmf-dist/tex/latex/beamer/beamerbaseframesize.sty
INPUT /usr/local/texlive/2017/texmf-dist/tex/latex/beamer/beamerbaseframecomponents.sty
INPUT /usr/local/texlive/2017/texmf-dist/tex/latex/beamer/beamerbaseframecomponents.sty
INPUT /usr/local/texlive/2017/texmf-dist/tex/latex/beamer/beamerbasecolor.sty
INPUT /usr/local/texlive/2017/texmf-dist/tex/latex/beamer/beamerbasecolor.sty
INPUT /usr/local/texlive/2017/texmf-dist/tex/latex/beamer/beamerbasenotes.sty
INPUT /usr/local/texlive/2017/texmf-dist/tex/latex/beamer/beamerbasenotes.sty
INPUT /usr/local/texlive/2017/texmf-dist/tex/latex/beamer/beamerbasetoc.sty
INPUT /usr/local/texlive/2017/texmf-dist/tex/latex/beamer/beamerbasetoc.sty
INPUT /usr/local/texlive/2017/texmf-dist/tex/latex/beamer/beamerbasetemplates.sty
INPUT /usr/local/texlive/2017/texmf-dist/tex/latex/beamer/beamerbasetemplates.sty
INPUT /usr/local/texlive/2017/texmf-dist/tex/latex/beamer/beamerbaseauxtemplates.sty
INPUT /usr/local/texlive/2017/texmf-dist/tex/latex/beamer/beamerbaseauxtemplates.sty
INPUT /usr/local/texlive/2017/texmf-dist/tex/latex/beamer/beamerbaseboxes.sty
INPUT /usr/local/texlive/2017/texmf-dist/tex/latex/beamer/beamerbaseboxes.sty
INPUT /usr/local/texlive/2017/texmf-dist/tex/latex/beamer/beamerbaselocalstructure.sty
INPUT /usr/local/texlive/2017/texmf-dist/tex/latex/beamer/beamerbaselocalstructure.sty
INPUT /usr/local/texlive/2017/texmf-dist/tex/latex/tools/enumerate.sty
INPUT /usr/local/texlive/2017/texmf-dist/tex/latex/tools/enumerate.sty
INPUT /usr/local/texlive/2017/texmf-dist/tex/latex/beamer/beamerbasenavigation.sty
INPUT /usr/local/texlive/2017/texmf-dist/tex/latex/beamer/beamerbasenavigation.sty
INPUT /usr/local/texlive/2017/texmf-dist/tex/latex/beamer/beamerbasetheorems.sty
INPUT /usr/local/texlive/2017/texmf-dist/tex/latex/beamer/beamerbasetheorems.sty
INPUT /usr/local/texlive/2017/texmf-dist/tex/latex/amsmath/amsmath.sty
INPUT /usr/local/texlive/2017/texmf-dist/tex/latex/amsmath/amsmath.sty
INPUT /usr/local/texlive/2017/texmf-dist/tex/latex/amsmath/amstext.sty
INPUT /usr/local/texlive/2017/texmf-dist/tex/latex/amsmath/amstext.sty
INPUT /usr/local/texlive/2017/texmf-dist/tex/latex/amsmath/amsgen.sty
INPUT /usr/local/texlive/2017/texmf-dist/tex/latex/amsmath/amsgen.sty
INPUT /usr/local/texlive/2017/texmf-dist/tex/latex/amsmath/amsbsy.sty
INPUT /usr/local/texlive/2017/texmf-dist/tex/latex/amsmath/amsbsy.sty
INPUT /usr/local/texlive/2017/texmf-dist/tex/latex/amsmath/amsopn.sty
INPUT /usr/local/texlive/2017/texmf-dist/tex/latex/amsmath/amsopn.sty
INPUT /usr/local/texlive/2017/texmf-dist/tex/latex/amscls/amsthm.sty
INPUT /usr/local/texlive/2017/texmf-dist/tex/latex/amscls/amsthm.sty
INPUT /usr/local/texlive/2017/texmf-dist/tex/latex/beamer/beamerbasethemes.sty
INPUT /usr/local/texlive/2017/texmf-dist/tex/latex/beamer/beamerbasethemes.sty
INPUT /usr/local/texlive/2017/texmf-dist/tex/latex/beamer/themes/theme/beamerthemedefault.sty
INPUT /usr/local/texlive/2017/texmf-dist/tex/latex/beamer/themes/theme/beamerthemedefault.sty
INPUT /usr/local/texlive/2017/texmf-dist/tex/latex/beamer/themes/font/beamerfontthemedefault.sty
INPUT /usr/local/texlive/2017/texmf-dist/tex/latex/beamer/themes/font/beamerfontthemedefault.sty
INPUT /usr/local/texlive/2017/texmf-dist/tex/latex/beamer/themes/color/beamercolorthemedefault.sty
INPUT /usr/local/texlive/2017/texmf-dist/tex/latex/beamer/themes/color/beamercolorthemedefault.sty
INPUT /usr/local/texlive/2017/texmf-dist/tex/latex/beamer/themes/inner/beamerinnerthemedefault.sty
INPUT /usr/local/texlive/2017/texmf-dist/tex/latex/beamer/themes/inner/beamerinnerthemedefault.sty
INPUT /usr/local/texlive/2017/texmf-dist/tex/latex/beamer/art/beamericonbook.pdf
INPUT /usr/local/texlive/2017/texmf-dist/tex/latex/beamer/art/beamericonbook.20.pdf
INPUT /usr/local/texlive/2017/texmf-dist/tex/latex/beamer/art/beamericonarticle.pdf
INPUT /usr/local/texlive/2017/texmf-dist/tex/latex/beamer/art/beamericonarticle.20.pdf
INPUT /usr/local/texlive/2017/texmf-dist/tex/latex/beamer/art/beamericononline.pdf
INPUT /usr/local/texlive/2017/texmf-dist/tex/latex/beamer/art/beamericononline.20.pdf
INPUT /usr/local/texlive/2017/texmf-dist/tex/latex/beamer/themes/outer/beamerouterthemedefault.sty
INPUT /usr/local/texlive/2017/texmf-dist/tex/latex/beamer/themes/outer/beamerouterthemedefault.sty
INPUT /usr/local/texlive/2017/texmf-dist/tex/latex/tipa/tipa.sty
INPUT /usr/local/texlive/2017/texmf-dist/tex/latex/tipa/tipa.sty
INPUT /usr/local/texlive/2017/texmf-dist/tex/latex/base/fontenc.sty
INPUT /usr/local/texlive/2017/texmf-dist/tex/latex/base/fontenc.sty
INPUT /usr/local/texlive/2017/texmf-dist/tex/latex/tipa/t3enc.def
INPUT /usr/local/texlive/2017/texmf-dist/tex/latex/tipa/t3enc.def
INPUT /usr/local/texlive/2017/texmf-dist/tex/latex/base/tuenc.def
INPUT /usr/local/texlive/2017/texmf-dist/tex/latex/base/tuenc.def
INPUT /usr/local/texlive/2017/texmf-dist/tex/latex/lm/lmodern.sty
INPUT /usr/local/texlive/2017/texmf-dist/tex/latex/lm/lmodern.sty
INPUT /usr/local/texlive/2017/texmf-dist/tex/latex/fontspec/fontspec.sty
INPUT /usr/local/texlive/2017/texmf-dist/tex/latex/fontspec/fontspec.sty
INPUT /usr/local/texlive/2017/texmf-dist/tex/latex/l3kernel/expl3.sty
INPUT /usr/local/texlive/2017/texmf-dist/tex/latex/l3kernel/expl3.sty
INPUT /usr/local/texlive/2017/texmf-dist/tex/latex/l3kernel/expl3-code.tex
INPUT /usr/local/texlive/2017/texmf-dist/tex/latex/l3kernel/expl3-code.tex
INPUT /usr/local/texlive/2017/texmf-dist/tex/generic/unicode-data/UnicodeData.txt
INPUT /usr/local/texlive/2017/texmf-dist/tex/generic/unicode-data/CaseFolding.txt
INPUT /usr/local/texlive/2017/texmf-dist/tex/generic/unicode-data/SpecialCasing.txt
INPUT /usr/local/texlive/2017/texmf-dist/tex/latex/l3kernel/l3xdvipdfmx.def
INPUT /usr/local/texlive/2017/texmf-dist/tex/latex/l3kernel/l3xdvipdfmx.def
INPUT /usr/local/texlive/2017/texmf-dist/tex/latex/l3packages/xparse/xparse.sty
INPUT /usr/local/texlive/2017/texmf-dist/tex/latex/l3packages/xparse/xparse.sty
INPUT /usr/local/texlive/2017/texmf-dist/tex/latex/fontspec/fontspec-xetex.sty
INPUT /usr/local/texlive/2017/texmf-dist/tex/latex/fontspec/fontspec-xetex.sty
INPUT /usr/local/texlive/2017/texmf-dist/tex/latex/base/tuenc.def
INPUT /usr/local/texlive/2017/texmf-dist/tex/latex/base/fontenc.sty
INPUT /usr/local/texlive/2017/texmf-dist/tex/latex/base/fontenc.sty
INPUT /usr/local/texlive/2017/texmf-dist/tex/latex/base/tuenc.def
INPUT /usr/local/texlive/2017/texmf-dist/tex/latex/base/tuenc.def
INPUT /usr/local/texlive/2017/texmf-dist/tex/latex/fontspec/fontspec.cfg
INPUT /usr/local/texlive/2017/texmf-dist/tex/latex/fontspec/fontspec.cfg
INPUT /usr/local/texlive/2017/texmf-dist/tex/latex/booktabs/booktabs.sty
INPUT /usr/local/texlive/2017/texmf-dist/tex/latex/booktabs/booktabs.sty
INPUT /usr/local/texlive/2017/texmf-dist/tex/latex/multirow/multirow.sty
INPUT /usr/local/texlive/2017/texmf-dist/tex/latex/multirow/multirow.sty
INPUT /usr/local/texlive/2017/texmf-dist/tex/generic/ulem/ulem.sty
INPUT /usr/local/texlive/2017/texmf-dist/tex/generic/ulem/ulem.sty
INPUT /usr/local/texlive/2017/texmf-dist/fonts/tfm/public/latex-fonts/lasy6.tfm
INPUT /usr/local/texlive/2017/texmf-dist/tex/latex/beamer/themes/theme/beamerthemePittsburgh.sty
INPUT /usr/local/texlive/2017/texmf-dist/tex/latex/beamer/themes/theme/beamerthemePittsburgh.sty
INPUT /usr/local/texlive/2017/texmf-dist/tex/latex/beamer/themes/inner/beamerinnerthemecircles.sty
INPUT /usr/local/texlive/2017/texmf-dist/tex/latex/beamer/themes/inner/beamerinnerthemecircles.sty
INPUT /usr/local/texlive/2017/texmf-dist/tex/latex/beamer/themes/font/beamerfontthemeserif.sty
INPUT /usr/local/texlive/2017/texmf-dist/tex/latex/beamer/themes/font/beamerfontthemeserif.sty
INPUT tel-aviv-slides.aux
INPUT tel-aviv-slides.aux
OUTPUT tel-aviv-slides.aux
INPUT /usr/local/texlive/2017/texmf-dist/tex/latex/tipa/t3cmr.fd
INPUT /usr/local/texlive/2017/texmf-dist/tex/latex/tipa/t3cmr.fd
INPUT /usr/local/texlive/2017/texmf-dist/tex/latex/hyperref/nameref.sty
INPUT /usr/local/texlive/2017/texmf-dist/tex/latex/hyperref/nameref.sty
INPUT /usr/local/texlive/2017/texmf-dist/tex/generic/oberdiek/gettitlestring.sty
INPUT /usr/local/texlive/2017/texmf-dist/tex/generic/oberdiek/gettitlestring.sty
INPUT tel-aviv-slides.out
INPUT tel-aviv-slides.out
INPUT tel-aviv-slides.out
INPUT tel-aviv-slides.out
OUTPUT tel-aviv-slides.out
INPUT /usr/local/texlive/2017/texmf-dist/tex/latex/beamer/translator/dicts/translator-basic-dictionary/translator-basic-dictionary-English.dict
INPUT /usr/local/texlive/2017/texmf-dist/tex/latex/beamer/translator/dicts/translator-basic-dictionary/translator-basic-dictionary-English.dict
INPUT /usr/local/texlive/2017/texmf-dist/tex/latex/beamer/translator/dicts/translator-bibliography-dictionary/translator-bibliography-dictionary-English.dict
INPUT /usr/local/texlive/2017/texmf-dist/tex/latex/beamer/translator/dicts/translator-bibliography-dictionary/translator-bibliography-dictionary-English.dict
INPUT /usr/local/texlive/2017/texmf-dist/tex/latex/beamer/translator/dicts/translator-environment-dictionary/translator-environment-dictionary-English.dict
INPUT /usr/local/texlive/2017/texmf-dist/tex/latex/beamer/translator/dicts/translator-environment-dictionary/translator-environment-dictionary-English.dict
INPUT /usr/local/texlive/2017/texmf-dist/tex/latex/beamer/translator/dicts/translator-months-dictionary/translator-months-dictionary-English.dict
INPUT /usr/local/texlive/2017/texmf-dist/tex/latex/beamer/translator/dicts/translator-months-dictionary/translator-months-dictionary-English.dict
INPUT /usr/local/texlive/2017/texmf-dist/tex/latex/beamer/translator/dicts/translator-numbers-dictionary/translator-numbers-dictionary-English.dict
INPUT /usr/local/texlive/2017/texmf-dist/tex/latex/beamer/translator/dicts/translator-numbers-dictionary/translator-numbers-dictionary-English.dict
INPUT /usr/local/texlive/2017/texmf-dist/tex/latex/beamer/translator/dicts/translator-theorem-dictionary/translator-theorem-dictionary-English.dict
INPUT /usr/local/texlive/2017/texmf-dist/tex/latex/beamer/translator/dicts/translator-theorem-dictionary/translator-theorem-dictionary-English.dict
INPUT tel-aviv-slides.nav
INPUT tel-aviv-slides.nav
OUTPUT tel-aviv-slides.xdv
INPUT /usr/local/texlive/2017/texmf-dist/tex/latex/lm/ot1lmr.fd
INPUT /usr/local/texlive/2017/texmf-dist/tex/latex/lm/ot1lmr.fd
INPUT /usr/local/texlive/2017/texmf-dist/fonts/tfm/public/lm/rm-lmr10.tfm
INPUT /usr/local/texlive/2017/texmf-dist/fonts/tfm/public/lm/rm-lmr8.tfm
INPUT /usr/local/texlive/2017/texmf-dist/fonts/tfm/public/lm/rm-lmr6.tfm
INPUT /usr/local/texlive/2017/texmf-dist/tex/latex/lm/omllmm.fd
INPUT /usr/local/texlive/2017/texmf-dist/tex/latex/lm/omllmm.fd
INPUT /usr/local/texlive/2017/texmf-dist/fonts/tfm/public/lm/lmmi10.tfm
INPUT /usr/local/texlive/2017/texmf-dist/fonts/tfm/public/lm/lmmi8.tfm
INPUT /usr/local/texlive/2017/texmf-dist/fonts/tfm/public/lm/lmmi6.tfm
INPUT /usr/local/texlive/2017/texmf-dist/tex/latex/lm/omslmsy.fd
INPUT /usr/local/texlive/2017/texmf-dist/tex/latex/lm/omslmsy.fd
INPUT /usr/local/texlive/2017/texmf-dist/fonts/tfm/public/lm/lmsy10.tfm
INPUT /usr/local/texlive/2017/texmf-dist/fonts/tfm/public/lm/lmsy8.tfm
INPUT /usr/local/texlive/2017/texmf-dist/fonts/tfm/public/lm/lmsy6.tfm
INPUT /usr/local/texlive/2017/texmf-dist/tex/latex/lm/omxlmex.fd
INPUT /usr/local/texlive/2017/texmf-dist/tex/latex/lm/omxlmex.fd
INPUT /usr/local/texlive/2017/texmf-dist/fonts/tfm/public/lm/lmex10.tfm
INPUT /usr/local/texlive/2017/texmf-dist/tex/latex/amsfonts/umsa.fd
INPUT /usr/local/texlive/2017/texmf-dist/tex/latex/amsfonts/umsa.fd
INPUT /usr/local/texlive/2017/texmf-dist/fonts/tfm/public/amsfonts/symbols/msam10.tfm
INPUT /usr/local/texlive/2017/texmf-dist/fonts/tfm/public/amsfonts/symbols/msam10.tfm
INPUT /usr/local/texlive/2017/texmf-dist/fonts/tfm/public/amsfonts/symbols/msam7.tfm
INPUT /usr/local/texlive/2017/texmf-dist/tex/latex/amsfonts/umsb.fd
INPUT /usr/local/texlive/2017/texmf-dist/tex/latex/amsfonts/umsb.fd
INPUT /usr/local/texlive/2017/texmf-dist/fonts/tfm/public/amsfonts/symbols/msbm10.tfm
INPUT /usr/local/texlive/2017/texmf-dist/fonts/tfm/public/amsfonts/symbols/msbm10.tfm
INPUT /usr/local/texlive/2017/texmf-dist/fonts/tfm/public/amsfonts/symbols/msbm7.tfm
INPUT tel-aviv-slides.toc
INPUT tel-aviv-slides.toc
INPUT tel-aviv-slides.toc
INPUT tel-aviv-slides.toc
OUTPUT tel-aviv-slides.vrb
INPUT tel-aviv-slides.vrb
INPUT tel-aviv-slides.vrb
INPUT tel-aviv-slides.vrb
INPUT tel-aviv-slides.vrb
OUTPUT tel-aviv-slides.vrb
INPUT tel-aviv-slides.vrb
INPUT tel-aviv-slides.vrb
INPUT tel-aviv-slides.vrb
INPUT tel-aviv-slides.vrb
INPUT tel-aviv-slides.toc
INPUT tel-aviv-slides.toc
INPUT tel-aviv-slides.toc
INPUT tel-aviv-slides.toc
OUTPUT tel-aviv-slides.vrb
INPUT tel-aviv-slides.vrb
INPUT tel-aviv-slides.vrb
INPUT images/affricate-rich-Eurasia.png
INPUT tel-aviv-slides.toc
INPUT tel-aviv-slides.toc
OUTPUT tel-aviv-slides.vrb
INPUT tel-aviv-slides.vrb
INPUT tel-aviv-slides.vrb
INPUT images/affricate-rich-Europe.pdf
OUTPUT tel-aviv-slides.vrb
INPUT tel-aviv-slides.vrb
INPUT tel-aviv-slides.vrb
INPUT /usr/local/texlive/2017/texmf-dist/fonts/tfm/public/lm/rm-lmr9.tfm
INPUT /usr/local/texlive/2017/texmf-dist/fonts/tfm/public/lm/rm-lmr5.tfm
INPUT /usr/local/texlive/2017/texmf-dist/fonts/tfm/public/lm/lmmi9.tfm
INPUT /usr/local/texlive/2017/texmf-dist/fonts/tfm/public/lm/lmmi5.tfm
INPUT /usr/local/texlive/2017/texmf-dist/fonts/tfm/public/lm/lmsy9.tfm
INPUT /usr/local/texlive/2017/texmf-dist/fonts/tfm/public/lm/lmsy5.tfm
INPUT /usr/local/texlive/2017/texmf-dist/fonts/tfm/public/amsfonts/symbols/msam10.tfm
INPUT /usr/local/texlive/2017/texmf-dist/fonts/tfm/public/amsfonts/symbols/msam5.tfm
INPUT /usr/local/texlive/2017/texmf-dist/fonts/tfm/public/amsfonts/symbols/msbm10.tfm
INPUT /usr/local/texlive/2017/texmf-dist/fonts/tfm/public/amsfonts/symbols/msbm5.tfm
OUTPUT tel-aviv-slides.vrb
INPUT tel-aviv-slides.vrb
INPUT tel-aviv-slides.vrb
INPUT images/affricate-rich-Caucasus.pdf
OUTPUT tel-aviv-slides.vrb
INPUT tel-aviv-slides.vrb
INPUT tel-aviv-slides.vrb
INPUT /usr/local/texlive/2017/texmf-dist/fonts/tfm/public/tipa/tipa8.tfm
OUTPUT tel-aviv-slides.vrb
INPUT tel-aviv-slides.vrb
INPUT tel-aviv-slides.vrb
INPUT images/affricate-rich-Hindu-Kush.pdf
OUTPUT tel-aviv-slides.vrb
INPUT tel-aviv-slides.vrb
INPUT tel-aviv-slides.vrb
INPUT /usr/local/texlive/2017/texmf-dist/fonts/tfm/public/lm/rm-lmr10.tfm
INPUT /usr/local/texlive/2017/texmf-dist/fonts/tfm/public/lm/rm-lmr7.tfm
INPUT /usr/local/texlive/2017/texmf-dist/fonts/tfm/public/lm/lmmi10.tfm
INPUT /usr/local/texlive/2017/texmf-dist/fonts/tfm/public/lm/lmmi7.tfm
INPUT /usr/local/texlive/2017/texmf-dist/fonts/tfm/public/lm/lmsy10.tfm
INPUT /usr/local/texlive/2017/texmf-dist/fonts/tfm/public/lm/lmsy7.tfm
INPUT /usr/local/texlive/2017/texmf-dist/fonts/tfm/public/amsfonts/symbols/msam10.tfm
INPUT /usr/local/texlive/2017/texmf-dist/fonts/tfm/public/amsfonts/symbols/msam7.tfm
INPUT /usr/local/texlive/2017/texmf-dist/fonts/tfm/public/amsfonts/symbols/msbm10.tfm
INPUT /usr/local/texlive/2017/texmf-dist/fonts/tfm/public/amsfonts/symbols/msbm7.tfm
OUTPUT tel-aviv-slides.vrb
INPUT tel-aviv-slides.vrb
INPUT tel-aviv-slides.vrb
INPUT images/affricate-rich-E-Himalaya.pdf
OUTPUT tel-aviv-slides.vrb
INPUT tel-aviv-slides.vrb
INPUT tel-aviv-slides.vrb
INPUT tel-aviv-slides.toc
INPUT tel-aviv-slides.toc
INPUT images/paths-to-retroflex-affricates.png
INPUT /usr/local/texlive/2017/texmf-dist/fonts/tfm/public/tipa/tipa10.tfm
INPUT tel-aviv-slides.toc
INPUT tel-aviv-slides.toc
INPUT /usr/local/texlive/2017/texmf-dist/fonts/tfm/public/tipa/tipa10.tfm
INPUT images/Chinese_dialect_groups.png
INPUT tel-aviv-slides.toc
INPUT tel-aviv-slides.toc
INPUT images/South_America.png
OUTPUT tel-aviv-slides.nav
OUTPUT tel-aviv-slides.toc
OUTPUT tel-aviv-slides.snm
INPUT tel-aviv-slides.aux
