# Fdb version 3
["xdvipdfmx"] 1527366871 "tel-aviv-slides.xdv" "tel-aviv-slides.pdf" "tel-aviv-slides" 1527366886
  "tel-aviv-slides.xdv" 1527366871 502472 e0820c2fee585ad489d308dee76189a7 "xelatex"
  (generated)
  "tel-aviv-slides.pdf"
["xelatex"] 1527366868 "tel-aviv-slides.tex" "tel-aviv-slides.xdv" "tel-aviv-slides" 1527366886
  "/usr/local/texlive/2017/texmf-dist/fonts/map/fontname/texfonts.map" 1480098670 3287 e6b82fe08f5336d4d5ebc73fb1152e87 ""
  "/usr/local/texlive/2017/texmf-dist/fonts/tfm/adobe/zapfding/pzdr.tfm" 1480098689 1528 f853c4d1b4e0550255e02831fdc8496f ""
  "/usr/local/texlive/2017/texmf-dist/fonts/tfm/public/amsfonts/symbols/msam10.tfm" 1480098698 916 f87d7c45f9c908e672703b83b72241a3 ""
  "/usr/local/texlive/2017/texmf-dist/fonts/tfm/public/amsfonts/symbols/msam5.tfm" 1480098698 924 9904cf1d39e9767e7a3622f2a125a565 ""
  "/usr/local/texlive/2017/texmf-dist/fonts/tfm/public/amsfonts/symbols/msam7.tfm" 1480098698 928 2dc8d444221b7a635bb58038579b861a ""
  "/usr/local/texlive/2017/texmf-dist/fonts/tfm/public/amsfonts/symbols/msbm10.tfm" 1480098698 908 2921f8a10601f252058503cc6570e581 ""
  "/usr/local/texlive/2017/texmf-dist/fonts/tfm/public/amsfonts/symbols/msbm5.tfm" 1480098698 940 75ac932a52f80982a9f8ea75d03a34cf ""
  "/usr/local/texlive/2017/texmf-dist/fonts/tfm/public/amsfonts/symbols/msbm7.tfm" 1480098698 940 228d6584342e91276bf566bcf9716b83 ""
  "/usr/local/texlive/2017/texmf-dist/fonts/tfm/public/latex-fonts/lasy6.tfm" 1480098711 520 4889cce2180234b97cad636b6039c722 ""
  "/usr/local/texlive/2017/texmf-dist/fonts/tfm/public/lm/lmex10.tfm" 1480098712 992 ce925c9346c7613270a79afbee98c070 ""
  "/usr/local/texlive/2017/texmf-dist/fonts/tfm/public/lm/lmmi10.tfm" 1480098712 1528 6d36b2385e0ca062a654de6ac59cb34f ""
  "/usr/local/texlive/2017/texmf-dist/fonts/tfm/public/lm/lmmi5.tfm" 1480098712 1508 198f5b7b99b5769126de3a533f6fc334 ""
  "/usr/local/texlive/2017/texmf-dist/fonts/tfm/public/lm/lmmi6.tfm" 1480098712 1512 94a3fd88c6f27dbd9ecb46987e297a4e ""
  "/usr/local/texlive/2017/texmf-dist/fonts/tfm/public/lm/lmmi7.tfm" 1480098712 1528 d5b028dd23da623848ef0645c96a1ed7 ""
  "/usr/local/texlive/2017/texmf-dist/fonts/tfm/public/lm/lmmi8.tfm" 1480098712 1520 a3fe5596932db2db2cbda300920dd4e9 ""
  "/usr/local/texlive/2017/texmf-dist/fonts/tfm/public/lm/lmmi9.tfm" 1480098712 1524 cdf05765c2a8bdb569ea0aa208fb0947 ""
  "/usr/local/texlive/2017/texmf-dist/fonts/tfm/public/lm/lmsy10.tfm" 1480098712 1308 02cc510f9dd6012e5815d0c0ffbf6869 ""
  "/usr/local/texlive/2017/texmf-dist/fonts/tfm/public/lm/lmsy5.tfm" 1480098712 1296 54ed1a711e2303d5282575278e3620b0 ""
  "/usr/local/texlive/2017/texmf-dist/fonts/tfm/public/lm/lmsy6.tfm" 1480098712 1300 b0605d44c16c22d99dc001808e4f24ea ""
  "/usr/local/texlive/2017/texmf-dist/fonts/tfm/public/lm/lmsy7.tfm" 1480098712 1304 32f22a15acc296b2a4e15698403dcb88 ""
  "/usr/local/texlive/2017/texmf-dist/fonts/tfm/public/lm/lmsy8.tfm" 1480098712 1304 cdc9a17df9ef0d2dc320eff37bbab1c4 ""
  "/usr/local/texlive/2017/texmf-dist/fonts/tfm/public/lm/lmsy9.tfm" 1480098712 1300 ca37bc0213808d24f74bf4d32f81f80d ""
  "/usr/local/texlive/2017/texmf-dist/fonts/tfm/public/lm/rm-lmr10.tfm" 1480098712 11868 4f81e9b6033c032bdaf9884f4d7ef412 ""
  "/usr/local/texlive/2017/texmf-dist/fonts/tfm/public/lm/rm-lmr5.tfm" 1480098712 11804 aefb10c002e6492c25236524a447f969 ""
  "/usr/local/texlive/2017/texmf-dist/fonts/tfm/public/lm/rm-lmr6.tfm" 1480098712 11836 e3b6ce3e601aec94f64a536e7f4224d5 ""
  "/usr/local/texlive/2017/texmf-dist/fonts/tfm/public/lm/rm-lmr7.tfm" 1480098712 11852 5a9022f105fd1ee2797df861e79ae9a0 ""
  "/usr/local/texlive/2017/texmf-dist/fonts/tfm/public/lm/rm-lmr8.tfm" 1480098712 11864 309fd7f43e4a0ba39f6f7644d76e8edf ""
  "/usr/local/texlive/2017/texmf-dist/fonts/tfm/public/lm/rm-lmr9.tfm" 1480098712 11884 c93929a6974dce79eabb778f219d7e18 ""
  "/usr/local/texlive/2017/texmf-dist/fonts/tfm/public/tipa/tipa10.tfm" 1480098718 1920 8604b12a16d79ccdaa2f671dda04ba87 ""
  "/usr/local/texlive/2017/texmf-dist/fonts/tfm/public/tipa/tipa8.tfm" 1480098718 1908 6174e8a8125000ed0c046ddbc47a3985 ""
  "/usr/local/texlive/2017/texmf-dist/tex/generic/ifxetex/ifxetex.sty" 1480098815 1458 43ab4710dc82f3edeabecd0d099626b2 ""
  "/usr/local/texlive/2017/texmf-dist/tex/generic/oberdiek/atbegshi.sty" 1480098815 24580 144573175d90c8e36676f97ae1d11ec2 ""
  "/usr/local/texlive/2017/texmf-dist/tex/generic/oberdiek/gettitlestring.sty" 1480098815 8237 3b62ef1f7e2c23a328c814b3893bc11f ""
  "/usr/local/texlive/2017/texmf-dist/tex/generic/oberdiek/hobsub-generic.sty" 1490564930 185082 1fb09d7d24834377f95006300bc91fd2 ""
  "/usr/local/texlive/2017/texmf-dist/tex/generic/oberdiek/hobsub-hyperref.sty" 1480098815 70864 bcd5b216757bd619ae692a151d90085d ""
  "/usr/local/texlive/2017/texmf-dist/tex/generic/oberdiek/ifpdf.sty" 1490564930 1251 d170e11a3246c3392bc7f59595af42cb ""
  "/usr/local/texlive/2017/texmf-dist/tex/generic/oberdiek/ifvtex.sty" 1480098815 6797 90b7f83b0ad46826bc16058b1e3d48df ""
  "/usr/local/texlive/2017/texmf-dist/tex/generic/oberdiek/infwarerr.sty" 1480098815 8253 473e0e41f9adadb1977e8631b8f72ea6 ""
  "/usr/local/texlive/2017/texmf-dist/tex/generic/oberdiek/ltxcmds.sty" 1480098815 18425 5b3c0c59d76fac78978b5558e83c1f36 ""
  "/usr/local/texlive/2017/texmf-dist/tex/generic/oberdiek/se-ascii-print.def" 1480098815 3154 688330b6ca706e672a9310fc1a549476 ""
  "/usr/local/texlive/2017/texmf-dist/tex/generic/oberdiek/stringenc.sty" 1480098815 21411 4c6135fd98dd4f5499becbfc9a323deb ""
  "/usr/local/texlive/2017/texmf-dist/tex/generic/pgf/basiclayer/pgfcore.code.tex" 1480098816 1006 b103be0bfc8c1682ff1fa9760697a329 ""
  "/usr/local/texlive/2017/texmf-dist/tex/generic/pgf/basiclayer/pgfcorearrows.code.tex" 1480098816 43226 167a99346bfe2676e3efcdde2d81fe45 ""
  "/usr/local/texlive/2017/texmf-dist/tex/generic/pgf/basiclayer/pgfcoreexternal.code.tex" 1480098816 19302 4f089dc590e71f7331e6d5b5ea85273b ""
  "/usr/local/texlive/2017/texmf-dist/tex/generic/pgf/basiclayer/pgfcoregraphicstate.code.tex" 1480098816 6068 edae1e768a7d8d8f0f00e953d2b0153e ""
  "/usr/local/texlive/2017/texmf-dist/tex/generic/pgf/basiclayer/pgfcoreimage.code.tex" 1480098816 7041 a891ad72049e17c4e366c40ca37b0ccb ""
  "/usr/local/texlive/2017/texmf-dist/tex/generic/pgf/basiclayer/pgfcorelayers.code.tex" 1480098816 4625 40c07e9f6f2f7c674704b3f2055560ce ""
  "/usr/local/texlive/2017/texmf-dist/tex/generic/pgf/basiclayer/pgfcoreobjects.code.tex" 1480098816 2631 7eefa6cdbefd8d4e2bad7262cf1094cd ""
  "/usr/local/texlive/2017/texmf-dist/tex/generic/pgf/basiclayer/pgfcorepathconstruct.code.tex" 1480098816 43477 81143b33d9ebafdeead07ede13372427 ""
  "/usr/local/texlive/2017/texmf-dist/tex/generic/pgf/basiclayer/pgfcorepathprocessing.code.tex" 1480098816 17436 8d99d4113be311daf23deff86991ee7d ""
  "/usr/local/texlive/2017/texmf-dist/tex/generic/pgf/basiclayer/pgfcorepathusage.code.tex" 1480098816 20772 c57e34db4aa7b1da013169d04b743eac ""
  "/usr/local/texlive/2017/texmf-dist/tex/generic/pgf/basiclayer/pgfcorepatterns.code.tex" 1480098816 9641 711f0edc22c180a5caf168b6e8970057 ""
  "/usr/local/texlive/2017/texmf-dist/tex/generic/pgf/basiclayer/pgfcorepoints.code.tex" 1480098816 34516 658a71478d21df554bce9d9cd436203a ""
  "/usr/local/texlive/2017/texmf-dist/tex/generic/pgf/basiclayer/pgfcorequick.code.tex" 1480098816 3052 e5672c657232fd63b0a9853b0746297c ""
  "/usr/local/texlive/2017/texmf-dist/tex/generic/pgf/basiclayer/pgfcorescopes.code.tex" 1480098816 16669 4ec6e40088fc6de6334b443fe2dc59f0 ""
  "/usr/local/texlive/2017/texmf-dist/tex/generic/pgf/basiclayer/pgfcoreshade.code.tex" 1480098816 21541 4cd19f8ff7dd74d5aa7d803a6397af84 ""
  "/usr/local/texlive/2017/texmf-dist/tex/generic/pgf/basiclayer/pgfcoretransformations.code.tex" 1480098816 19998 d77fef95c7369827753d17fd11be19c4 ""
  "/usr/local/texlive/2017/texmf-dist/tex/generic/pgf/basiclayer/pgfcoretransparency.code.tex" 1480098816 8943 2e2495b057f8f0035b5568394d489963 ""
  "/usr/local/texlive/2017/texmf-dist/tex/generic/pgf/math/pgfmath.code.tex" 1480098816 454 9e9e7c99f4da4f41698be21eaef4938e ""
  "/usr/local/texlive/2017/texmf-dist/tex/generic/pgf/math/pgfmathcalc.code.tex" 1480098816 13416 940ea6971d7a65dc440d3479939c66ae ""
  "/usr/local/texlive/2017/texmf-dist/tex/generic/pgf/math/pgfmathfloat.code.tex" 1480098816 94097 62ac62cda46eb715560dc27f9ed6e8b1 ""
  "/usr/local/texlive/2017/texmf-dist/tex/generic/pgf/math/pgfmathfunctions.base.code.tex" 1480098816 9375 5adc70f722abd29fc250d59e0694b548 ""
  "/usr/local/texlive/2017/texmf-dist/tex/generic/pgf/math/pgfmathfunctions.basic.code.tex" 1480098816 22069 7c21c42b15718ce922f36235be360490 ""
  "/usr/local/texlive/2017/texmf-dist/tex/generic/pgf/math/pgfmathfunctions.code.tex" 1480098816 8210 a7be5b52ef3d2c087b7dc3d52898b67e ""
  "/usr/local/texlive/2017/texmf-dist/tex/generic/pgf/math/pgfmathfunctions.comparison.code.tex" 1480098816 3534 c7f28fbac13616513e513efe93b8569b ""
  "/usr/local/texlive/2017/texmf-dist/tex/generic/pgf/math/pgfmathfunctions.integerarithmetics.code.tex" 1480098816 3167 7c9394e79aac27db96a92f9b2792b858 ""
  "/usr/local/texlive/2017/texmf-dist/tex/generic/pgf/math/pgfmathfunctions.misc.code.tex" 1480098816 9289 261407875b9dbb0194691c3eb893610f ""
  "/usr/local/texlive/2017/texmf-dist/tex/generic/pgf/math/pgfmathfunctions.random.code.tex" 1480098816 7078 946ddf4a7e57219b6afdbad98eb6731b ""
  "/usr/local/texlive/2017/texmf-dist/tex/generic/pgf/math/pgfmathfunctions.round.code.tex" 1480098816 2688 139c6abc86761a6190c2f4bef5d752be ""
  "/usr/local/texlive/2017/texmf-dist/tex/generic/pgf/math/pgfmathfunctions.trigonometric.code.tex" 1480098816 92284 dcf023dbaa84e6c50e11c2f79fe8cfa6 ""
  "/usr/local/texlive/2017/texmf-dist/tex/generic/pgf/math/pgfmathparser.code.tex" 1480098816 35430 046e15fbb65e74d8f0e7945f99741fdb ""
  "/usr/local/texlive/2017/texmf-dist/tex/generic/pgf/math/pgfmathutil.code.tex" 1480098816 7099 f44d505bae6c7c2b933cdd63441db4b9 ""
  "/usr/local/texlive/2017/texmf-dist/tex/generic/pgf/systemlayer/pgf.cfg" 1480098816 978 15af626ebd3d4d790aac19170dac04f2 ""
  "/usr/local/texlive/2017/texmf-dist/tex/generic/pgf/systemlayer/pgfsys-common-pdf.def" 1480098816 5437 d91f93ed61ecdc57e119849b2d784a0b ""
  "/usr/local/texlive/2017/texmf-dist/tex/generic/pgf/systemlayer/pgfsys-dvipdfmx.def" 1480098816 18422 182ea340fe384a783e6d99184fca680d ""
  "/usr/local/texlive/2017/texmf-dist/tex/generic/pgf/systemlayer/pgfsys-xetex.def" 1480098816 2854 4e3bebfa6c55ef2b7b032d020293758e ""
  "/usr/local/texlive/2017/texmf-dist/tex/generic/pgf/systemlayer/pgfsys.code.tex" 1480098816 35113 2ccc50c1c9573e4bac9230d030f9c67c ""
  "/usr/local/texlive/2017/texmf-dist/tex/generic/pgf/systemlayer/pgfsysprotocol.code.tex" 1480098816 1983 b5994ebbcee17f1ba3d29bb1bd696fcf ""
  "/usr/local/texlive/2017/texmf-dist/tex/generic/pgf/systemlayer/pgfsyssoftpath.code.tex" 1480098816 7881 d459d6057e13d10ce7a227ae44b7295e ""
  "/usr/local/texlive/2017/texmf-dist/tex/generic/pgf/utilities/pgfkeys.code.tex" 1480098816 36194 e194ef4e0b396b531a3891feb4b1cc22 ""
  "/usr/local/texlive/2017/texmf-dist/tex/generic/pgf/utilities/pgfkeysfiltered.code.tex" 1480098816 33377 af391d6ad1bfcbe2278e191f48e43ba8 ""
  "/usr/local/texlive/2017/texmf-dist/tex/generic/pgf/utilities/pgfrcs.code.tex" 1480098816 2536 a3b0529d815a2759ba157b56610a6377 ""
  "/usr/local/texlive/2017/texmf-dist/tex/generic/pgf/utilities/pgfutil-common-lists.tex" 1480098816 6833 114eda2cf1d348e0e7e477a1a4dc1941 ""
  "/usr/local/texlive/2017/texmf-dist/tex/generic/pgf/utilities/pgfutil-common.tex" 1480098816 16501 ab0135765e27b6b8dae047831fe84818 ""
  "/usr/local/texlive/2017/texmf-dist/tex/generic/pgf/utilities/pgfutil-latex.def" 1480098816 5544 294baac9629ba59f675b1f2027ad7136 ""
  "/usr/local/texlive/2017/texmf-dist/tex/generic/ulem/ulem.sty" 1480098819 23756 854c01b779030ff5b2aad88ba7a119f2 ""
  "/usr/local/texlive/2017/texmf-dist/tex/generic/unicode-data/CaseFolding.txt" 1480098819 78161 e3fbf2f626f10070000fe66f3a2ff5ef ""
  "/usr/local/texlive/2017/texmf-dist/tex/generic/unicode-data/SpecialCasing.txt" 1480098819 16830 fea30f45a2f81ffa474fd984d297e2ea ""
  "/usr/local/texlive/2017/texmf-dist/tex/generic/unicode-data/UnicodeData.txt" 1480098819 1686443 dde25b1cf9bbb4ba1140ac12e4128b0b ""
  "/usr/local/texlive/2017/texmf-dist/tex/latex/amscls/amsthm.sty" 1480098820 12225 3cca0d18522255979a1047206228b9d0 ""
  "/usr/local/texlive/2017/texmf-dist/tex/latex/amsfonts/amsfonts.sty" 1480098820 5949 3f3fd50a8cc94c3d4cbf4fc66cd3df1c ""
  "/usr/local/texlive/2017/texmf-dist/tex/latex/amsfonts/amssymb.sty" 1480098820 13829 94730e64147574077f8ecfea9bb69af4 ""
  "/usr/local/texlive/2017/texmf-dist/tex/latex/amsfonts/umsa.fd" 1480098820 961 6518c6525a34feb5e8250ffa91731cff ""
  "/usr/local/texlive/2017/texmf-dist/tex/latex/amsfonts/umsb.fd" 1480098820 961 d02606146ba5601b5645f987c92e6193 ""
  "/usr/local/texlive/2017/texmf-dist/tex/latex/amsmath/amsbsy.sty" 1480098820 2210 5c54ab129b848a5071554186d0168766 ""
  "/usr/local/texlive/2017/texmf-dist/tex/latex/amsmath/amsgen.sty" 1480098820 4160 c115536cf8d4ff25aa8c1c9bc4ecb79a ""
  "/usr/local/texlive/2017/texmf-dist/tex/latex/amsmath/amsmath.sty" 1485129665 84329 81aa65c5042562f79cb421feff9b8bdc ""
  "/usr/local/texlive/2017/texmf-dist/tex/latex/amsmath/amsopn.sty" 1480098820 4115 318a66090112f3aa3f415aeb6fe8540f ""
  "/usr/local/texlive/2017/texmf-dist/tex/latex/amsmath/amstext.sty" 1480098820 2431 fe3078ec12fc30287f568596f8e0b948 ""
  "/usr/local/texlive/2017/texmf-dist/tex/latex/base/fontenc.sty" 1492297155 4571 13977df0eda144b93597fc709035ad1f ""
  "/usr/local/texlive/2017/texmf-dist/tex/latex/base/size11.clo" 1480098821 8308 f91506bb4df6d8527331f7bbeaf0e63c ""
  "/usr/local/texlive/2017/texmf-dist/tex/latex/base/tuenc.def" 1492297155 27166 081ef1345bf363faf81b61c2450b871f ""
  "/usr/local/texlive/2017/texmf-dist/tex/latex/beamer/art/beamericonarticle.20.pdf" 1480098821 2958 4e0c4a6e994e5c4d9da11c477e927f0f ""
  "/usr/local/texlive/2017/texmf-dist/tex/latex/beamer/art/beamericonarticle.pdf" 1480098821 2936 6cc3ef0682cbb62be8aa1b19f0a84ed6 ""
  "/usr/local/texlive/2017/texmf-dist/tex/latex/beamer/art/beamericonbook.20.pdf" 1480098821 2734 0bcf939051dd2a936cdfe5982f7c233b ""
  "/usr/local/texlive/2017/texmf-dist/tex/latex/beamer/art/beamericonbook.pdf" 1480098821 2667 7624351b441ffe4bd2d14e08fbcf063d ""
  "/usr/local/texlive/2017/texmf-dist/tex/latex/beamer/art/beamericononline.20.pdf" 1480098821 24451 195d2c060e84f339954bc6d9b52131d7 ""
  "/usr/local/texlive/2017/texmf-dist/tex/latex/beamer/art/beamericononline.pdf" 1480098821 24611 df07010540266b2b205b492a4d02e7e1 ""
  "/usr/local/texlive/2017/texmf-dist/tex/latex/beamer/beamer.cls" 1485644465 11394 1c9e801011aca6a6d0f1bbb6e30cd8ca ""
  "/usr/local/texlive/2017/texmf-dist/tex/latex/beamer/beamerbaseauxtemplates.sty" 1483401677 21731 c1b729545246779a6b31bf5941e087e1 ""
  "/usr/local/texlive/2017/texmf-dist/tex/latex/beamer/beamerbaseboxes.sty" 1483401677 8073 df5c1784673e960a504a7c1960c767d3 ""
  "/usr/local/texlive/2017/texmf-dist/tex/latex/beamer/beamerbasecolor.sty" 1485644465 12934 b2be1d3e1f4410bd87d0d5052e334ac2 ""
  "/usr/local/texlive/2017/texmf-dist/tex/latex/beamer/beamerbasecompatibility.sty" 1483401677 23951 2be18aaac57e7b003a2dd3678894ade5 ""
  "/usr/local/texlive/2017/texmf-dist/tex/latex/beamer/beamerbasedecode.sty" 1483401677 8110 8004d63ef543b9b23c6e7dc560fb4661 ""
  "/usr/local/texlive/2017/texmf-dist/tex/latex/beamer/beamerbasefont.sty" 1483401677 13154 49cd4f890d1dc12e13b1096eeebd5388 ""
  "/usr/local/texlive/2017/texmf-dist/tex/latex/beamer/beamerbaseframe.sty" 1483401677 24653 5605c526bad8b8f62913de9b70f2c7e3 ""
  "/usr/local/texlive/2017/texmf-dist/tex/latex/beamer/beamerbaseframecomponents.sty" 1483401677 11823 dacf533ecb38faae14a62339a1d2930e ""
  "/usr/local/texlive/2017/texmf-dist/tex/latex/beamer/beamerbaseframesize.sty" 1483401677 8724 3da64c74fd1533e88179d5635b7ae6fe ""
  "/usr/local/texlive/2017/texmf-dist/tex/latex/beamer/beamerbaselocalstructure.sty" 1485126066 16476 3c0e0f24286ae9928c174b5d228d58e2 ""
  "/usr/local/texlive/2017/texmf-dist/tex/latex/beamer/beamerbasemisc.sty" 1483401677 7786 a80c4b0c3ef835f5d8d67f4cc406619c ""
  "/usr/local/texlive/2017/texmf-dist/tex/latex/beamer/beamerbasemodes.sty" 1483401677 7975 6a9ae479bde064cb007c99f98ecd5014 ""
  "/usr/local/texlive/2017/texmf-dist/tex/latex/beamer/beamerbasenavigation.sty" 1483401677 28642 1bc1a7997379e267814f79e79d937ae1 ""
  "/usr/local/texlive/2017/texmf-dist/tex/latex/beamer/beamerbasenotes.sty" 1483401677 5089 d1a219ad836534cde171e32e4bd371b9 ""
  "/usr/local/texlive/2017/texmf-dist/tex/latex/beamer/beamerbaseoptions.sty" 1483401677 1691 ac3beb98c5ef2001e78841fd15c135be ""
  "/usr/local/texlive/2017/texmf-dist/tex/latex/beamer/beamerbaseoverlay.sty" 1485644465 25922 7137380db48891e687fe3d407c8cae17 ""
  "/usr/local/texlive/2017/texmf-dist/tex/latex/beamer/beamerbaserequires.sty" 1483401677 1628 dcc7a38bae749fce269a21909d42abe8 ""
  "/usr/local/texlive/2017/texmf-dist/tex/latex/beamer/beamerbasesection.sty" 1485126066 12772 7a67626061d635da3a647d29ebd3ccca ""
  "/usr/local/texlive/2017/texmf-dist/tex/latex/beamer/beamerbasetemplates.sty" 1483401677 5726 c4401209883cbda4b9486a7b03ad59b8 ""
  "/usr/local/texlive/2017/texmf-dist/tex/latex/beamer/beamerbasethemes.sty" 1483401677 1075 10ca10a8f9786d9ac59b8556bee74109 ""
  "/usr/local/texlive/2017/texmf-dist/tex/latex/beamer/beamerbasetheorems.sty" 1483401677 4521 fde07c5df6cf557c1dca08fba0d6cdb8 ""
  "/usr/local/texlive/2017/texmf-dist/tex/latex/beamer/beamerbasetitle.sty" 1483401677 5557 8f51f675f7268597e91a7939f527ff7f ""
  "/usr/local/texlive/2017/texmf-dist/tex/latex/beamer/beamerbasetoc.sty" 1483401677 7295 12ad048d3d33fddeaaa09bed4d5ed7a3 ""
  "/usr/local/texlive/2017/texmf-dist/tex/latex/beamer/beamerbasetranslator.sty" 1483401677 637 685bd3d40aca2fa87965a39bc31aca7f ""
  "/usr/local/texlive/2017/texmf-dist/tex/latex/beamer/beamerbasetwoscreens.sty" 1483401677 1374 26178e35fc3b706eebcfc6de25351f5a ""
  "/usr/local/texlive/2017/texmf-dist/tex/latex/beamer/beamerbaseverbatim.sty" 1483401677 3966 7d83dcb30c657a13d19400cb4b6f681a ""
  "/usr/local/texlive/2017/texmf-dist/tex/latex/beamer/themes/color/beamercolorthemedefault.sty" 1483401677 7009 0c0d2f1522ee889efa73dff176c38a43 ""
  "/usr/local/texlive/2017/texmf-dist/tex/latex/beamer/themes/font/beamerfontthemedefault.sty" 1483401677 4103 d8b0a00217353484fb55f9d4472ad021 ""
  "/usr/local/texlive/2017/texmf-dist/tex/latex/beamer/themes/font/beamerfontthemeserif.sty" 1483401677 1008 b4fd2fc481a18ead34e358fb1ab2bed3 ""
  "/usr/local/texlive/2017/texmf-dist/tex/latex/beamer/themes/inner/beamerinnerthemecircles.sty" 1483401677 402 e195c2bcc25433d9ad026b309024fcf9 ""
  "/usr/local/texlive/2017/texmf-dist/tex/latex/beamer/themes/inner/beamerinnerthemedefault.sty" 1483401677 12755 a5870f4049cd06a3113b3ed0ff6a7d0f ""
  "/usr/local/texlive/2017/texmf-dist/tex/latex/beamer/themes/outer/beamerouterthemedefault.sty" 1483401677 6446 cebfbda0c5047bb9f0a637ef56929c3a ""
  "/usr/local/texlive/2017/texmf-dist/tex/latex/beamer/themes/theme/beamerthemePittsburgh.sty" 1483401677 332 7a8b03d64509c75c306bd64485637cb5 ""
  "/usr/local/texlive/2017/texmf-dist/tex/latex/beamer/themes/theme/beamerthemedefault.sty" 1483401677 355 75c98e7b8f427eb7c625ed391b140c5b ""
  "/usr/local/texlive/2017/texmf-dist/tex/latex/beamer/translator/dicts/translator-basic-dictionary/translator-basic-dictionary-English.dict" 1480098821 3435 0a4d096dde3f8fe682c2aedd33b8137d ""
  "/usr/local/texlive/2017/texmf-dist/tex/latex/beamer/translator/dicts/translator-bibliography-dictionary/translator-bibliography-dictionary-English.dict" 1480098821 903 c6d17f0656e9e1abb172b4faebabd617 ""
  "/usr/local/texlive/2017/texmf-dist/tex/latex/beamer/translator/dicts/translator-environment-dictionary/translator-environment-dictionary-English.dict" 1480098821 433 bfb8d1c2c020defd2de8e5c276710094 ""
  "/usr/local/texlive/2017/texmf-dist/tex/latex/beamer/translator/dicts/translator-months-dictionary/translator-months-dictionary-English.dict" 1480098821 1337 9a6c05e8f0c8b3c5f27cbd0e455cf475 ""
  "/usr/local/texlive/2017/texmf-dist/tex/latex/beamer/translator/dicts/translator-numbers-dictionary/translator-numbers-dictionary-English.dict" 1480098821 1638 2bf1a1dea98f8a4d28033fce76e9cc67 ""
  "/usr/local/texlive/2017/texmf-dist/tex/latex/beamer/translator/dicts/translator-theorem-dictionary/translator-theorem-dictionary-English.dict" 1480098821 3523 1f9d9b91f7d78b73e74c7e97bca30fb0 ""
  "/usr/local/texlive/2017/texmf-dist/tex/latex/beamer/translator/translator-language-mappings.tex" 1483401677 5119 71b31bb700c1486fddecd875be4e1688 ""
  "/usr/local/texlive/2017/texmf-dist/tex/latex/beamer/translator/translator.sty" 1483401677 3881 a0552e5c21c45573b5971c0252abf6c9 ""
  "/usr/local/texlive/2017/texmf-dist/tex/latex/booktabs/booktabs.sty" 1480098823 5869 94335281ffcab47f341cf07ea8220e30 ""
  "/usr/local/texlive/2017/texmf-dist/tex/latex/etoolbox/etoolbox.sty" 1483484472 42324 d951db30d0cb2b811f084fa3f92aec16 ""
  "/usr/local/texlive/2017/texmf-dist/tex/latex/filehook/filehook.sty" 1480098828 12104 88bda8c1ae09e2b6dc29ed32629eafa1 ""
  "/usr/local/texlive/2017/texmf-dist/tex/latex/fontspec/fontspec-xetex.sty" 1491002578 145304 c1d766aa2e99bfd7c88991e357108c76 ""
  "/usr/local/texlive/2017/texmf-dist/tex/latex/fontspec/fontspec.cfg" 1491002578 549 e7553134efaf62922106a54300834ab9 ""
  "/usr/local/texlive/2017/texmf-dist/tex/latex/fontspec/fontspec.sty" 1491002578 1704 f155bd31324526584df93d8880629e82 ""
  "/usr/local/texlive/2017/texmf-dist/tex/latex/geometry/geometry.sty" 1480098829 40502 e003406220954b0716679d7928aedd8a ""
  "/usr/local/texlive/2017/texmf-dist/tex/latex/graphics-cfg/color.cfg" 1480098830 1213 620bba36b25224fa9b7e1ccb4ecb76fd ""
  "/usr/local/texlive/2017/texmf-dist/tex/latex/graphics-cfg/graphics.cfg" 1480098830 1224 978390e9c2234eab29404bc21b268d1e ""
  "/usr/local/texlive/2017/texmf-dist/tex/latex/graphics-def/xetex.def" 1485129666 21966 ed359f6c6c81a1c024b31a1bd86d1b4a ""
  "/usr/local/texlive/2017/texmf-dist/tex/latex/graphics/graphics.sty" 1492297155 14603 b288c52bd5d46d593af31dbc7e548236 ""
  "/usr/local/texlive/2017/texmf-dist/tex/latex/graphics/graphicx.sty" 1480098830 8125 557ab9f1bfa80d369fb45a914aa8a3b4 ""
  "/usr/local/texlive/2017/texmf-dist/tex/latex/graphics/keyval.sty" 1480098830 2594 d18d5e19aa8239cf867fa670c556d2e9 ""
  "/usr/local/texlive/2017/texmf-dist/tex/latex/graphics/trig.sty" 1480098830 3980 0a268fbfda01e381fa95821ab13b6aee ""
  "/usr/local/texlive/2017/texmf-dist/tex/latex/hyperref/hxetex.def" 1489964469 45109 0d162ebe2b85589994e9a71add12b9b3 ""
  "/usr/local/texlive/2017/texmf-dist/tex/latex/hyperref/hyperref.sty" 1489964469 233808 b63d91422c362e723c6e8b1a2fffcba5 ""
  "/usr/local/texlive/2017/texmf-dist/tex/latex/hyperref/nameref.sty" 1480098831 12949 81e4e808884a8f0e276b69410e234656 ""
  "/usr/local/texlive/2017/texmf-dist/tex/latex/hyperref/pd1enc.def" 1489964469 14098 7631f11156e5f9cd76010dbd230aa268 ""
  "/usr/local/texlive/2017/texmf-dist/tex/latex/hyperref/puenc.def" 1489964469 122411 7c1f7e015c7fc4bfb7dc052d55755ce3 ""
  "/usr/local/texlive/2017/texmf-dist/tex/latex/l3kernel/expl3-code.tex" 1494801658 689208 a4a1f960caacd72906628f3f1a2e3b4c ""
  "/usr/local/texlive/2017/texmf-dist/tex/latex/l3kernel/expl3.sty" 1494801658 9344 31607e39934aa760394a75d15a0594e0 ""
  "/usr/local/texlive/2017/texmf-dist/tex/latex/l3kernel/l3xdvipdfmx.def" 1494801658 9309 40457b7ddc8b83bdefeb1c2e23f8724a ""
  "/usr/local/texlive/2017/texmf-dist/tex/latex/l3packages/xparse/xparse.sty" 1494801658 76757 9db3143638eba1ea8405900fbbcff235 ""
  "/usr/local/texlive/2017/texmf-dist/tex/latex/latexconfig/hyperref.cfg" 1480098833 235 6031e5765137be07eed51a510b2b8fb7 ""
  "/usr/local/texlive/2017/texmf-dist/tex/latex/lm/lmodern.sty" 1480098833 1606 c17281c7cff2bbd7ff0173e1433487ec ""
  "/usr/local/texlive/2017/texmf-dist/tex/latex/lm/omllmm.fd" 1480098833 888 44447a3a3af84a22454ef89500942d93 ""
  "/usr/local/texlive/2017/texmf-dist/tex/latex/lm/omslmsy.fd" 1480098833 805 af340a8260c447aa315cfc740ff0152f ""
  "/usr/local/texlive/2017/texmf-dist/tex/latex/lm/omxlmex.fd" 1480098833 566 a94661f7b66063f191960bb7935b6ba2 ""
  "/usr/local/texlive/2017/texmf-dist/tex/latex/lm/ot1lmr.fd" 1480098833 1880 bae7b659316f7344a86218ad38b01d91 ""
  "/usr/local/texlive/2017/texmf-dist/tex/latex/ms/everyshi.sty" 1480098835 3878 6aa7c08ff2621006e0603349e40a30a8 ""
  "/usr/local/texlive/2017/texmf-dist/tex/latex/multirow/multirow.sty" 1480201744 5015 cd8d25106b58dfc16af57528a07d0bc9 ""
  "/usr/local/texlive/2017/texmf-dist/tex/latex/oberdiek/auxhook.sty" 1480098836 3834 4363110eb0ef1eb2b71c8fcbcdb6c357 ""
  "/usr/local/texlive/2017/texmf-dist/tex/latex/oberdiek/kvoptions.sty" 1480098836 22417 1d9df1eb66848aa31b18a593099cf45c ""
  "/usr/local/texlive/2017/texmf-dist/tex/latex/oberdiek/rerunfilecheck.sty" 1480098836 9581 023642318cef9f4677efe364de1e2a27 ""
  "/usr/local/texlive/2017/texmf-dist/tex/latex/pgf/basiclayer/pgfcore.sty" 1480098837 410 5bf12ea7330e5f12c445332a4fe9a263 ""
  "/usr/local/texlive/2017/texmf-dist/tex/latex/pgf/systemlayer/pgfsys.sty" 1480098837 443 0b2e781830192df35c0fd357cf13e26e ""
  "/usr/local/texlive/2017/texmf-dist/tex/latex/pgf/utilities/pgfrcs.sty" 1480098837 325 2bcd023400636339210573e2b3ee298b ""
  "/usr/local/texlive/2017/texmf-dist/tex/latex/pgf/utilities/xxcolor.sty" 1480098837 2267 e82edfd18fbf4047c6f20ed9467f27db ""
  "/usr/local/texlive/2017/texmf-dist/tex/latex/sansmathaccent/sansmathaccent.sty" 1480098838 4280 a62885a2f2d4221d634eb6cd5559e518 ""
  "/usr/local/texlive/2017/texmf-dist/tex/latex/tipa/t3cmr.fd" 1480098841 1257 fd5b1c2f0106f9cf12cdb2ff961987c5 ""
  "/usr/local/texlive/2017/texmf-dist/tex/latex/tipa/t3enc.def" 1480098841 26483 c461a68c34040cb0d96c43e86c012a6d ""
  "/usr/local/texlive/2017/texmf-dist/tex/latex/tipa/tipa.sty" 1480098841 21394 82fa9965637ca62399434739ae5998f6 ""
  "/usr/local/texlive/2017/texmf-dist/tex/latex/tools/enumerate.sty" 1480098841 3467 d39e40f25d5fd2b3b49a58d155063dd6 ""
  "/usr/local/texlive/2017/texmf-dist/tex/latex/url/url.sty" 1480098842 12796 8edb7d69a20b857904dd0ea757c14ec9 ""
  "/usr/local/texlive/2017/texmf-dist/tex/latex/xcolor/xcolor.sty" 1480098843 55589 34128738f682d033422ca125f82e5d62 ""
  "/usr/local/texlive/2017/texmf-dist/web2c/texmf.cnf" 1494087824 32646 eadc4ca26cdbe7105ac7c593aa8c4f72 ""
  "/usr/local/texlive/2017/texmf-var/web2c/xetex/xelatex.fmt" 1501762100 3678519 15dc980abf4082ddc211241d28bcc155 ""
  "/usr/local/texlive/2017/texmf.cnf" 1495593465 577 2b71d4d888f9e5560b2e99985915a9fa ""
  "images/Chinese_dialect_groups.png" 1527183792 158455 4efe6f7723470162c9b90c73ffa8df5a ""
  "images/South_America.png" 1500643910 317106 e2ee78868910686b7e6ce75de2501de8 ""
  "images/affricate-rich-Caucasus.pdf" 1527183792 699523 83872fa42d722667c094a2075f9dab45 ""
  "images/affricate-rich-E-Himalaya.pdf" 1527183792 1874410 5fc7a56c4a6a554fe051d877c6cce506 ""
  "images/affricate-rich-Eurasia.png" 1527183792 531273 895af6595865420eb611897ccd4d6fad ""
  "images/affricate-rich-Europe.pdf" 1527183792 805728 32d013bf048df06237301cc4bdb3cd15 ""
  "images/affricate-rich-Hindu-Kush.pdf" 1527183792 975980 f9de823c0e3d115597dd7758dd909d27 ""
  "images/paths-to-retroflex-affricates.png" 1527183792 70634 28a3979a83676c8f638f29f25b2cddea ""
  "tel-aviv-slides.aux" 1527366871 15292 f72b3048e6758085121b00bebc49db97 ""
  "tel-aviv-slides.nav" 1527366871 7114 434102ec4483869fda3acb418348561e ""
  "tel-aviv-slides.out" 1527366871 513 9355fc2d2bc97596194aa10a7c8ef6c0 ""
  "tel-aviv-slides.tex" 1527366868 28491 7f6d0e32a33a7691aa2411c71cd6e660 ""
  "tel-aviv-slides.toc" 1527366871 478 fe2b419025b970a0b01db9f746ac8489 ""
  "tel-aviv-slides.vrb" 1527366871 1054 cde90c6878f735212b2e42bef1a87008 ""
  (generated)
  "tel-aviv-slides.out"
  "tel-aviv-slides.aux"
  "tel-aviv-slides.nav"
  "tel-aviv-slides.toc"
  "tel-aviv-slides.vrb"
  "tel-aviv-slides.log"
  "tel-aviv-slides.xdv"
  "tel-aviv-slides.snm"
